% This file was created by matplotlib2tikz v0.6.17.
\begin{tikzpicture}

\definecolor{color0}{rgb}{0.12156862745098,0.466666666666667,0.705882352941177}
\definecolor{color1}{rgb}{1,0.498039215686275,0.0549019607843137}

\begin{axis}[
xmin=0.5, xmax=209.5,
ymin=-1.90364437174382, ymax=-0.673167156650684,
width=\figurewidth,
height=\figureheight,
tick align=outside,
tick pos=left,
x grid style={white!69.01960784313725!black},
y grid style={white!69.01960784313725!black},
legend cell align={left},
legend style={at={(0.03,0.97)}, anchor=north west, draw=white!80.0!black},
legend entries={{1848},{1848_entity}}
]
\addlegendimage{no markers, color0}
\addlegendimage{no markers, color1}
\addplot [semithick, color0]
table {%
10 -1.84771358923958
20 -1.40532418944654
30 -1.17018401874028
40 -1.27565943223128
50 -1.36725512370062
60 -0.977982787762218
70 -1.02344201592987
80 -0.872473268350894
90 -0.962709288683507
100 -0.951086350643143
110 -0.936028292934698
120 -0.933659811138509
130 -0.91086177559865
140 -0.853993924350036
150 -0.868765053308576
160 -0.940400498765456
170 -0.983789381542793
180 -1.08099755696726
190 -1.07040245746696
200 -0.873756835191585
};
\addplot [semithick, color1]
table {%
10 -1.7366038772989
20 -1.10065126887939
30 -1.33543466532594
40 -0.976412875047495
50 -1.4455701296817
60 -1.18820622027104
70 -1.1083260084833
80 -0.979230328048039
90 -1.05476379524135
100 -0.748209427873821
110 -0.729097939154918
120 -0.947039411083956
130 -0.965864112725435
140 -0.868246065106349
150 -0.889819489431515
160 -1.05315540975301
170 -0.95122223758461
180 -0.946334138019391
190 -0.914781057789395
200 -1.0011738985101
};
\end{axis}

\end{tikzpicture}