% This file was created by matplotlib2tikz v0.6.17.
\begin{tikzpicture}

\definecolor{color0}{rgb}{0.12156862745098,0.466666666666667,0.705882352941177}
\definecolor{color1}{rgb}{1,0.498039215686275,0.0549019607843137}
\definecolor{color2}{rgb}{0.172549019607843,0.627450980392157,0.172549019607843}
\definecolor{color3}{rgb}{0.83921568627451,0.152941176470588,0.156862745098039}
\definecolor{color4}{rgb}{0.580392156862745,0.403921568627451,0.741176470588235}
\definecolor{color5}{rgb}{0.549019607843137,0.337254901960784,0.294117647058824}

\begin{groupplot}[group style={group size=2 by 15}]
\nextgroupplot[
xmin=1836.25, xmax=1940.75,
ymin=0.00266226601782604, ymax=0.022269897753998,
xtick={1840,1845,1850,1855,1860,1865,1870,1875,1880,1885,1890,1895,1900,1905,1910,1915,1920,1925,1930,1935},
xticklabels={},
minor xtick={1820,1840,1860,1880,1900,1920,1940,1960},
minor xticklabels={},
tick align=outside,
xticklabel style = {rotate=30},
tick pos=left,
x grid style={white!69.01960784313725!black},
y grid style={white!69.01960784313725!black},
legend style={draw=white!80.0!black},
legend cell align={left},
legend entries={{linguistics}},
unbounded coords=jump
]
\addlegendimage{no markers, color0}
\addplot [semithick, color0]
table {%
1837 nan
1838 nan
1839 nan
1840 nan
1841 0.015437062595437
1842 0.0118679955828611
1843 0.0116359583385525
1844 0.0125218623310906
1845 0.0142412120417753
1846 0.0162852106197293
1847 0.0148343279386533
1848 0.0142709398645909
1849 0.0135489012574794
1850 0.0139269078337634
1851 0.0136634827065273
1852 0.0120710526075148
1853 0.0127637384608571
1854 0.0125837129291489
1855 0.0154253426888747
1856 0.015199179646288
1857 0.0161393802142508
1858 0.0133921265326459
1859 0.0106495210664043
1860 0.00862213164588057
1861 0.0096788393050373
1862 0.0159875975182457
1863 0.0190834937157231
1864 0.0213786417659902
1865 0.0167442819226267
1866 0.0141013529306899
1867 0.00968473810243924
1868 0.0076079826488227
1869 0.00578256093231428
1870 0.00607174330826865
1871 0.00752532699886564
1872 0.0085760768550737
1873 0.00744000534998198
1874 0.00746946066340115
1875 0.0090488387470297
1876 0.0120417498488147
1877 0.0116729875254893
1878 0.00926227415935601
1879 0.00706298584920104
1880 0.00601167389584134
1881 0.00584561000881776
1882 0.00538335718305108
1883 0.00608079844854122
1884 0.00618088378085228
1885 0.00708274622667836
1886 0.00683386116470628
1887 0.00778531405339638
1888 0.00727645045103979
1889 0.00809668060713875
1890 0.0116295033469543
1891 0.0163092655775788
1892 0.0207507765768469
1893 0.0186752149492564
1894 0.0158361889060517
1895 0.0133531397667892
1896 0.0132761560911755
1897 0.0143073812334049
1898 0.0124611781364163
1899 0.0105482489031298
1900 0.00678580086029494
1901 0.0065609657523156
1902 0.00800943423018907
1903 0.0135185573906508
1904 0.0156353162797384
1905 0.0160160689728173
1906 0.0111197926050105
1907 0.00993549148760546
1908 0.00951270633913737
1909 0.0122016022510125
1910 0.0119377123199027
1911 0.0143808626926329
1912 0.0151552097142687
1913 0.0166060255913989
1914 0.0125908940220446
1915 0.00853249834431659
1916 0.00480358379152474
1917 0.00381619953491786
1918 0.0036844169643094
1919 0.00357585127312632
1920 0.00355352200583386
1921 0.00425217194571006
1922 0.00487579854843211
1923 0.00632539011778337
1924 0.00664327547252065
1925 0.00758873808568852
1926 0.0069907243514409
1927 0.00678237036691421
1928 0.00600632239810592
1929 0.00560073960059526
1930 0.00704388104817452
1931 0.00838547463205133
1932 0.0108809682093099
1933 0.00983945892411005
1934 0.00867286489771383
1935 0.00705238902044888
1936 0.00747561275956185
};
\nextgroupplot[
xmin=1836.25, xmax=1940.75,
ymin=0.0649532851162001, ymax=0.232778559928017,
xtick={1840,1845,1850,1855,1860,1865,1870,1875,1880,1885,1890,1895,1900,1905,1910,1915,1920,1925,1930,1935},
xticklabels={},
minor xtick={1820,1840,1860,1880,1900,1920,1940,1960},
minor xticklabels={},
tick align=outside,
xticklabel style = {rotate=30},
tick pos=left,
x grid style={white!69.01960784313725!black},
y grid style={white!69.01960784313725!black},
legend style={draw=white!80.0!black},
legend entries={{literary studies}},
legend cell align={left},
unbounded coords=jump
]
\addlegendimage{no markers, color0}
\addlegendimage{no markers, color1}
\addplot [semithick, color1]
table {%
1837 nan
1838 nan
1839 nan
1840 nan
1841 0.225150138345662
1842 0.214128840758071
1843 0.209958825603356
1844 0.216820201176852
1845 0.208850596564882
1846 0.204265203698981
1847 0.169118176380816
1848 0.132294982541794
1849 0.0982412246413497
1850 0.0939066217179061
1851 0.113012056861351
1852 0.127702583759268
1853 0.137279333563754
1854 0.131795378358738
1855 0.136789545545424
1856 0.135619331859712
1857 0.143513220874673
1858 0.14831155653724
1859 0.16490555444775
1860 0.171207634679219
1861 0.171988474887333
1862 0.166410514312215
1863 0.162466039324651
1864 0.170438859267541
1865 0.166484130098648
1866 0.162009398834906
1867 0.131745187116454
1868 0.11434679861469
1869 0.104450201507774
1870 0.112362404113586
1871 0.120006904542606
1872 0.126816330326044
1873 0.126086560282437
1874 0.124002408281153
1875 0.116096759044034
1876 0.122733464473031
1877 0.134052078023662
1878 0.151395724314612
1879 0.160271073657109
1880 0.162456228184058
1881 0.161320589840156
1882 0.161852965210178
1883 0.171497795580418
1884 0.178803983784604
1885 0.179741579370033
1886 0.16994741628166
1887 0.160484122392903
1888 0.157940784476352
1889 0.160421577950861
1890 0.171504670416179
1891 0.181864487865476
1892 0.190592948446705
1893 0.18810194087271
1894 0.176361466700251
1895 0.156427660914706
1896 0.139701504255609
1897 0.127849568978345
1898 0.123740222278438
1899 0.122067131320408
1900 0.126529756436153
1901 0.135932357529296
1902 0.144479854275529
1903 0.148862836305581
1904 0.150212349058892
1905 0.147535951980198
1906 0.143704137665597
1907 0.132846593805772
1908 0.124679602802675
1909 0.12088669895596
1910 0.12733248254075
1911 0.131867948538614
1912 0.130502028522642
1913 0.117793836362233
1914 0.107807716226198
1915 0.0971858503812971
1916 0.0923659266217858
1917 0.0846816868975743
1918 0.0787994023692894
1919 0.0729656983153796
1920 0.0725817066985554
1921 0.0751513789409602
1922 0.0819290715591655
1923 0.0909341681084849
1924 0.103315393252501
1925 0.113726312342262
1926 0.113559034511771
1927 0.10268172265531
1928 0.0904790342772483
1929 0.0931113238378379
1930 0.107325734020542
1931 0.119702881531869
1932 0.115540082652451
1933 0.0998132820795945
1934 0.0854398346660901
1935 0.0827597568759554
1936 0.0940438608587581
};
\nextgroupplot[
xmin=1836.25, xmax=1940.75,
ymin=-0.000138710662618754, ymax=0.00711540928738259,
xtick={1840,1845,1850,1855,1860,1865,1870,1875,1880,1885,1890,1895,1900,1905,1910,1915,1920,1925,1930,1935},
xticklabels={},
minor xtick={1820,1840,1860,1880,1900,1920,1940,1960},
minor xticklabels={},
tick align=outside,
xticklabel style = {rotate=30},
tick pos=left,
x grid style={white!69.01960784313725!black},
y grid style={white!69.01960784313725!black},
legend cell align={left},
legend style={at={(0.03,0.97)}, anchor=north west, draw=white!80.0!black},
unbounded coords=jump,
legend entries={{mathematics}}
]
\addlegendimage{no markers, color0}
\addlegendimage{no markers, color1}
\addlegendimage{no markers, color2}
\addplot [semithick, color2]
table {%
1837 nan
1838 nan
1839 nan
1840 nan
1841 0.00397399180373112
1842 0.00370827137137692
1843 0.00313678398298281
1844 0.00287536348150752
1845 0.00276257488691398
1846 0.0020756504813701
1847 0.00170126070735124
1848 0.00108187234360457
1849 0.00150991495065177
1850 0.00219956769629764
1851 0.00363189314773788
1852 0.0038512407051409
1853 0.00420686952566029
1854 0.00349728590036749
1855 0.00352561798313723
1856 0.00251535586479198
1857 0.00187984464285288
1858 0.0022675472729361
1859 0.00311537936221384
1860 0.00416393063754741
1861 0.0030238482868362
1862 0.00201608376068584
1863 0.000789096091959133
1864 0.000793420291984148
1865 0.00127169718089388
1866 0.00186799587711701
1867 0.00222272975425616
1868 0.00194894467727459
1869 0.00173412249831826
1870 0.00160868496792924
1871 0.00163335239215535
1872 0.0016245918232711
1873 0.00153386741218734
1874 0.00133149263734822
1875 0.00102423173451724
1876 0.000852284612234497
1877 0.000738396068104268
1878 0.000772772772620556
1879 0.000735530430997894
1880 0.000766076645365704
1881 0.000657068735386525
1882 0.000844224070369314
1883 0.00104175948081951
1884 0.00132650975626802
1885 0.000945484870012731
1886 0.000576366621582262
1887 0.000191022062381307
1888 0.000212411111318842
1889 0.000308356996432243
1890 0.000543552088212588
1891 0.000776917320106602
1892 0.000827026422080558
1893 0.000602930806053337
1894 0.000378238052588939
1895 0.000288299527975748
1896 0.000429188415005734
1897 0.00113404168555715
1898 0.00196069045536104
1899 0.00262150964384647
1900 0.00209334759798215
1901 0.00123239624535169
1902 0.000436508862309084
1903 0.000286669321402163
1904 0.000363717562360459
1905 0.000437736265212152
1906 0.000489988974070204
1907 0.000478282296853649
1908 0.000508160713353492
1909 0.000473990171207738
1910 0.000456789389596047
1911 0.000431181448384955
1912 0.000485134010028155
1913 0.00057053295497806
1914 0.000806714737892536
1915 0.00108447122084322
1916 0.00129502663023434
1917 0.00120520857631669
1918 0.000935832696200123
1919 0.000727842289570112
1920 0.00100536571356871
1921 0.00149044313920715
1922 0.00193986503512002
1923 0.00182490661173536
1924 0.00164938108274429
1925 0.00157712334637634
1926 0.001506342469333
1927 0.00130066501070461
1928 0.000965120757528995
1929 0.000808897674788669
1930 0.000832072104344661
1931 0.000835653450824086
1932 0.000839823708462164
1933 0.00101826210748691
1934 0.00145226042927031
1935 0.0043331391647775
1936 0.00678567656238253
};
\nextgroupplot[
xmin=1836.25, xmax=1940.75,
ymin=-0.000229719897519153, ymax=0.00504654694538829,
xtick={1840,1845,1850,1855,1860,1865,1870,1875,1880,1885,1890,1895,1900,1905,1910,1915,1920,1925,1930,1935},
xticklabels={},
minor xtick={1820,1840,1860,1880,1900,1920,1940,1960},
minor xticklabels={},
tick align=outside,
xticklabel style = {rotate=30},
tick pos=left,
x grid style={white!69.01960784313725!black},
y grid style={white!69.01960784313725!black},
legend style={draw=white!80.0!black},
legend cell align={left},
legend entries={{musicology}},
unbounded coords=jump
]
\addlegendimage{no markers, color0}
\addlegendimage{no markers, color1}
\addlegendimage{no markers, color2}
\addlegendimage{no markers, color3}
\addplot [semithick, color3]
table {%
1837 nan
1838 nan
1839 nan
1840 nan
1841 0.000173454685055832
1842 0.000312382424049752
1843 0.000411195721325283
1844 0.000437921766812603
1845 0.000407484542746614
1846 0.000385561919150253
1847 0.000342989900812224
1848 0.000236049999923833
1849 0.000209421231513968
1850 0.000225574516346367
1851 0.000303727517051458
1852 0.000210620161674847
1853 0.000207592310624073
1854 0.000352799157718032
1855 0.000585984233408807
1856 0.00191307692714165
1857 0.00335829704757392
1858 0.00480671663434704
1859 0.00379871621236008
1860 0.00211554129742176
1861 0.000440496234760859
1862 0.00018613955681859
1863 0.000340794457972354
1864 0.000483620776321914
1865 0.000329075347862171
1866 0.000168398862468975
1867 1.49778144683902e-05
1868 1.01104135220946e-05
1869 1.96049221333144e-05
1870 4.06715053221281e-05
1871 6.23206751381784e-05
1872 0.000107193330595439
1873 0.00012227163794402
1874 0.000149400863923195
1875 0.000112963940864574
1876 0.000118725469153307
1877 0.00010372546808589
1878 0.000241162700048234
1879 0.000340135112815511
1880 0.000453074744857278
1881 0.000317600658743484
1882 0.00018353403760961
1883 3.5715658270874e-05
1884 1.50785207956182e-05
1885 7.05440046999684e-05
1886 0.000232478577673747
1887 0.000403629731541362
1888 0.000443974484786243
1889 0.000289304258987815
1890 0.000248964564308254
1891 0.000275236063771445
1892 0.000397670723145893
1893 0.000267060765989097
1894 0.000349033588678241
1895 0.000515558615082531
1896 0.000816662871670815
1897 0.000710914405014288
1898 0.000486661280673515
1899 0.000795612532076322
1900 0.00128878474707663
1901 0.002392506592312
1902 0.0025689695644865
1903 0.00336287278656123
1904 0.00296870098665952
1905 0.0028571489820024
1906 0.00152073171345061
1907 0.0013764501311218
1908 0.00130718500087015
1909 0.00203233457978058
1910 0.00164091150499088
1911 0.00126741021762832
1912 0.000543377046293851
1913 0.000315171778917526
1914 0.00010109762802636
1915 5.46054557793872e-05
1916 3.50450378618916e-05
1917 9.52716186096344e-05
1918 0.000357996608360938
1919 0.000670863170941832
1920 0.000838012110496796
1921 0.000756624212954193
1922 0.00060305374963971
1923 0.000505128432172973
1924 0.000340210910445017
1925 0.000229976840703077
1926 0.000253175796905857
1927 0.00038152885867425
1928 0.000476573699011674
1929 0.000476763512577034
1930 0.000489696644460006
1931 0.000796219785115682
1932 0.00095996014796482
1933 0.00143881745720541
1934 0.00140918253924206
1935 0.0015021851609668
1936 0.000990419984898633
};
\nextgroupplot[
xmin=1836.25, xmax=1940.75,
ymin=0.0658662025791374, ymax=0.438291155484103,
tick align=outside,
xticklabel style = {rotate=30},
tick pos=left,
x grid style={white!69.01960784313725!black},
y grid style={white!69.01960784313725!black},
legend entries={{narrative}},
legend style={at={(0.03,0.97)}, anchor=north west, draw=white!80.0!black},
unbounded coords=jump,
legend cell align={left}
]
\addlegendimage{no markers, color0}
\addlegendimage{no markers, color1}
\addlegendimage{no markers, color2}
\addlegendimage{no markers, color3}
\addlegendimage{no markers, color4}
\addplot [semithick, color4]
table {%
1837 nan
1838 nan
1839 nan
1840 nan
1841 0.288464823339028
1842 0.298789487009104
1843 0.304459978793665
1844 0.302841374184898
1845 0.277775178347768
1846 0.233270103478971
1847 0.183660164413008
1848 0.154246913203818
1849 0.129760561555972
1850 0.114467677469457
1851 0.110457864939867
1852 0.118516084005415
1853 0.125190671082357
1854 0.10760746273534
1855 0.0909503933754302
1856 0.0827946095293631
1857 0.0933190353651001
1858 0.100510304736512
1859 0.0996199282732435
1860 0.100378696143082
1861 0.100262408529551
1862 0.107476360962415
1863 0.112568151849138
1864 0.122130979407672
1865 0.136838064193057
1866 0.144329080036676
1867 0.160187652494181
1868 0.163038127069254
1869 0.167525911991782
1870 0.152904865653909
1871 0.139548806803001
1872 0.134116797860401
1873 0.147372819044541
1874 0.158968798964865
1875 0.159749638720664
1876 0.1429223847826
1877 0.144119976566404
1878 0.155228823045494
1879 0.180269276652704
1880 0.195357629193246
1881 0.214885461096363
1882 0.224762026343304
1883 0.223092521030821
1884 0.219429691731256
1885 0.212893273207208
1886 0.212017087791625
1887 0.200025648062636
1888 0.207158843171814
1889 0.221844762678548
1890 0.244792362021826
1891 0.258749879123608
1892 0.270510532746553
1893 0.276588368399132
1894 0.281916221929647
1895 0.295210413893882
1896 0.305884924346843
1897 0.312127724195048
1898 0.295864698041561
1899 0.279639992725821
1900 0.268467519952234
1901 0.265025396432432
1902 0.275561792109942
1903 0.279641731252967
1904 0.297273569529737
1905 0.306985842843119
1906 0.324252256208878
1907 0.314781200968784
1908 0.299740759432925
1909 0.26956929375306
1910 0.260321654217598
1911 0.263542878963689
1912 0.290117814027174
1913 0.31594444943615
1914 0.326179123723073
1915 0.323399355934088
1916 0.335016292246754
1917 0.359574942474884
1918 0.388751860416897
1919 0.399127017155738
1920 0.412080116683253
1921 0.421362748533877
1922 0.418304338377715
1923 0.392913168139469
1924 0.350434597078245
1925 0.326402039097767
1926 0.313398033092704
1927 0.318304793622815
1928 0.314742017675826
1929 0.317481191207056
1930 0.328377455117296
1931 0.329412807076576
1932 0.321009187788326
1933 0.289435364618827
1934 0.28228655225986
1935 0.274943701854378
1936 0.277588583325926
};
\nextgroupplot[
xmin=1836.25, xmax=1940.75,
ymin=0.00599326568890319, ymax=0.0467953875694497,
tick align=outside,
xticklabel style = {rotate=30},
tick pos=left,
x grid style={white!69.01960784313725!black},
y grid style={white!69.01960784313725!black},
legend style={draw=white!80.0!black},
legend cell align={left},
legend entries={{pedagogy}},
unbounded coords=jump
]
\addlegendimage{no markers, color0}
\addlegendimage{no markers, color1}
\addlegendimage{no markers, color2}
\addlegendimage{no markers, color3}
\addlegendimage{no markers, color4}
\addlegendimage{no markers, color5}
\addplot [semithick, color5]
table {%
1837 nan
1838 nan
1839 nan
1840 nan
1841 0.0113558706540794
1842 0.0113627155346497
1843 0.0113287367985954
1844 0.011717444504547
1845 0.0149481554444214
1846 0.0168895391381056
1847 0.0174195613789405
1848 0.0145716162105663
1849 0.0112310377275106
1850 0.00901141992209078
1851 0.0078479075925644
1852 0.00911869548596971
1853 0.0131055496374238
1854 0.0181614951455092
1855 0.0225743398227931
1856 0.0224599159398464
1857 0.0235365022688762
1858 0.0222775834792799
1859 0.0219574024110582
1860 0.0185675914905138
1861 0.0192987447593648
1862 0.0189682771341779
1863 0.0191814098550051
1864 0.0165177866644923
1865 0.017954258634082
1866 0.0196652558503179
1867 0.0215965771397527
1868 0.0240073187841037
1869 0.0275939983135124
1870 0.0326482811131415
1871 0.0310021028087767
1872 0.0283828902084748
1873 0.0250242238558592
1874 0.0290316890576195
1875 0.0350295896546287
1876 0.0376495002806697
1877 0.0329947596347419
1878 0.0276564602875674
1879 0.0257720663138849
1880 0.0269115847063277
1881 0.0269875698898229
1882 0.0274137707944407
1883 0.0295581978546188
1884 0.0293185635829711
1885 0.0263959271899113
1886 0.0216664547102015
1887 0.0208698942532363
1888 0.0225260548730262
1889 0.0261265667696572
1890 0.0272683113838702
1891 0.0256548709187617
1892 0.0223193782366909
1893 0.0183773325532318
1894 0.0165483278250349
1895 0.0165188971582463
1896 0.0204103872472514
1897 0.025472158319101
1898 0.0333163536830878
1899 0.040661508952212
1900 0.0449407456657885
1901 0.0415001518618965
1902 0.035348368637339
1903 0.0321141881363979
1904 0.0307961156137127
1905 0.0314751198262052
1906 0.0313076869248208
1907 0.0348987152811888
1908 0.034120371320215
1909 0.0323705285667933
1910 0.0295004014048269
1911 0.0305724311104617
1912 0.0318624700461214
1913 0.0288225173829283
1914 0.0247768556228165
1915 0.021106385284851
1916 0.021522680812988
1917 0.020726713797583
1918 0.0195081823326796
1919 0.0176309148369253
1920 0.0160963051996532
1921 0.0142584131260087
1922 0.0137880438978249
1923 0.0155622583506177
1924 0.0194166433800926
1925 0.0224242147128406
1926 0.0250637264360876
1927 0.0274706123762043
1928 0.0285796900309505
1929 0.0277971407904766
1930 0.024589240415278
1931 0.0207117868146851
1932 0.018512336466074
1933 0.0183915275074721
1934 0.021262616861476
1935 0.0253612426489932
1936 0.0282828146574351
};
\nextgroupplot[
xmin=0, xmax=1935,
ymin=0, ymax=1,
tick align=outside,
xticklabel style = {rotate=30},
tick pos=left,
x grid style={white!69.01960784313725!black},
y grid style={white!69.01960784313725!black}
]
\nextgroupplot[
xmin=0, xmax=1935,
ymin=0, ymax=1,
tick align=outside,
xticklabel style = {rotate=30},
tick pos=left,
x grid style={white!69.01960784313725!black},
y grid style={white!69.01960784313725!black}
]
\nextgroupplot[
xmin=0, xmax=1935,
ymin=0, ymax=1,
tick align=outside,
xticklabel style = {rotate=30},
tick pos=left,
x grid style={white!69.01960784313725!black},
y grid style={white!69.01960784313725!black}
]
\nextgroupplot[
xmin=0, xmax=1935,
ymin=0, ymax=1,
tick align=outside,
xticklabel style = {rotate=30},
tick pos=left,
x grid style={white!69.01960784313725!black},
y grid style={white!69.01960784313725!black}
]
\nextgroupplot[
xmin=0, xmax=1935,
ymin=0, ymax=1,
tick align=outside,
xticklabel style = {rotate=30},
tick pos=left,
x grid style={white!69.01960784313725!black},
y grid style={white!69.01960784313725!black}
]
\nextgroupplot[
xmin=0, xmax=1935,
ymin=0, ymax=1,
tick align=outside,
xticklabel style = {rotate=30},
tick pos=left,
x grid style={white!69.01960784313725!black},
y grid style={white!69.01960784313725!black}
]
\nextgroupplot[
xmin=0, xmax=1935,
ymin=0, ymax=1,
tick align=outside,
xticklabel style = {rotate=30},
tick pos=left,
x grid style={white!69.01960784313725!black},
y grid style={white!69.01960784313725!black}
]
\nextgroupplot[
xmin=0, xmax=1935,
ymin=0, ymax=1,
tick align=outside,
xticklabel style = {rotate=30},
tick pos=left,
x grid style={white!69.01960784313725!black},
y grid style={white!69.01960784313725!black}
]
\nextgroupplot[
xmin=0, xmax=1935,
ymin=0, ymax=1,
tick align=outside,
xticklabel style = {rotate=30},
tick pos=left,
x grid style={white!69.01960784313725!black},
y grid style={white!69.01960784313725!black}
]
\nextgroupplot[
xmin=0, xmax=1935,
ymin=0, ymax=1,
tick align=outside,
xticklabel style = {rotate=30},
tick pos=left,
x grid style={white!69.01960784313725!black},
y grid style={white!69.01960784313725!black}
]
\nextgroupplot[
xmin=0, xmax=1935,
ymin=0, ymax=1,
tick align=outside,
xticklabel style = {rotate=30},
tick pos=left,
x grid style={white!69.01960784313725!black},
y grid style={white!69.01960784313725!black}
]
\nextgroupplot[
xmin=0, xmax=1935,
ymin=0, ymax=1,
tick align=outside,
xticklabel style = {rotate=30},
tick pos=left,
x grid style={white!69.01960784313725!black},
y grid style={white!69.01960784313725!black}
]
\nextgroupplot[
xmin=0, xmax=1935,
ymin=0, ymax=1,
tick align=outside,
xticklabel style = {rotate=30},
tick pos=left,
x grid style={white!69.01960784313725!black},
y grid style={white!69.01960784313725!black}
]
\nextgroupplot[
xmin=0, xmax=1935,
ymin=0, ymax=1,
tick align=outside,
xticklabel style = {rotate=30},
tick pos=left,
x grid style={white!69.01960784313725!black},
y grid style={white!69.01960784313725!black}
]
\nextgroupplot[
xmin=0, xmax=1935,
ymin=0, ymax=1,
tick align=outside,
xticklabel style = {rotate=30},
tick pos=left,
x grid style={white!69.01960784313725!black},
y grid style={white!69.01960784313725!black}
]
\nextgroupplot[
xmin=0, xmax=1935,
ymin=0, ymax=1,
tick align=outside,
xticklabel style = {rotate=30},
tick pos=left,
x grid style={white!69.01960784313725!black},
y grid style={white!69.01960784313725!black}
]
\nextgroupplot[
xmin=0, xmax=1935,
ymin=0, ymax=1,
tick align=outside,
xticklabel style = {rotate=30},
tick pos=left,
x grid style={white!69.01960784313725!black},
y grid style={white!69.01960784313725!black}
]
\nextgroupplot[
xmin=0, xmax=1935,
ymin=0, ymax=1,
tick align=outside,
xticklabel style = {rotate=30},
tick pos=left,
x grid style={white!69.01960784313725!black},
y grid style={white!69.01960784313725!black}
]
\nextgroupplot[
xmin=0, xmax=1935,
ymin=0, ymax=1,
tick align=outside,
xticklabel style = {rotate=30},
tick pos=left,
x grid style={white!69.01960784313725!black},
y grid style={white!69.01960784313725!black}
]
\nextgroupplot[
xmin=0, xmax=1935,
ymin=0, ymax=1,
tick align=outside,
xticklabel style = {rotate=30},
tick pos=left,
x grid style={white!69.01960784313725!black},
y grid style={white!69.01960784313725!black}
]
\nextgroupplot[
xmin=0, xmax=1935,
ymin=0, ymax=1,
tick align=outside,
xticklabel style = {rotate=30},
tick pos=left,
x grid style={white!69.01960784313725!black},
y grid style={white!69.01960784313725!black}
]
\nextgroupplot[
xmin=0, xmax=1935,
ymin=0, ymax=1,
tick align=outside,
xticklabel style = {rotate=30},
tick pos=left,
x grid style={white!69.01960784313725!black},
y grid style={white!69.01960784313725!black}
]
\nextgroupplot[
xmin=0, xmax=1935,
ymin=0, ymax=1,
tick align=outside,
xticklabel style = {rotate=30},
tick pos=left,
x grid style={white!69.01960784313725!black},
y grid style={white!69.01960784313725!black}
]
\nextgroupplot[
xmin=0, xmax=1935,
ymin=0, ymax=1,
tick align=outside,
xticklabel style = {rotate=30},
tick pos=left,
x grid style={white!69.01960784313725!black},
y grid style={white!69.01960784313725!black}
]
\end{groupplot}

\end{tikzpicture}