% This file was created by matplotlib2tikz v0.6.17.
\begin{tikzpicture}

\definecolor{color0}{rgb}{0.12156862745098,0.466666666666667,0.705882352941177}
\definecolor{color1}{rgb}{1,0.498039215686275,0.0549019607843137}
\definecolor{color2}{rgb}{0.172549019607843,0.627450980392157,0.172549019607843}
\definecolor{color3}{rgb}{0.83921568627451,0.152941176470588,0.156862745098039}
\definecolor{color4}{rgb}{0.580392156862745,0.403921568627451,0.741176470588235}
\definecolor{color5}{rgb}{0.549019607843137,0.337254901960784,0.294117647058824}

\begin{groupplot}[group style={group size=2 by 15}]
\nextgroupplot[
xmin=1836.25, xmax=1940.75,
ymin=0.00134628644181463, ymax=0.0602471445117058,
xtick={1840,1845,1850,1855,1860,1865,1870,1875,1880,1885,1890,1895,1900,1905,1910,1915,1920,1925,1930,1935},
xticklabels={},
minor xtick={1820,1840,1860,1880,1900,1920,1940,1960},
minor xticklabels={},
tick align=outside,
xticklabel style = {rotate=30},
tick pos=left,
x grid style={white!69.01960784313725!black},
y grid style={white!69.01960784313725!black},
legend style={draw=white!80.0!black},
legend cell align={left},
unbounded coords=jump,
legend entries={{?}}
]
\addlegendimage{no markers, color0}
\addplot [semithick, color0]
table {%
1837 nan
1838 nan
1839 nan
1840 nan
1841 0.0370860058143307
1842 0.0487799745906033
1843 0.0575698327812562
1844 0.0506774725103646
1845 0.0403593201282193
1846 0.029986834897847
1847 0.026234433020679
1848 0.0237529661291344
1849 0.0190286817696561
1850 0.0182116031192044
1851 0.0182850155807159
1852 0.0208802987351709
1853 0.0168203864027419
1854 0.0135170640328144
1855 0.0094431577271684
1856 0.0118790952527724
1857 0.0140851403801763
1858 0.0186245097181149
1859 0.0197039567836378
1860 0.0194037425551162
1861 0.0175848553729199
1862 0.014895217325801
1863 0.0126836539702582
1864 0.00931769896332134
1865 0.0073355975684611
1866 0.00628289233435137
1867 0.0067266386965975
1868 0.00991147155113797
1869 0.01308237060909
1870 0.0155276319329055
1871 0.0132117618996751
1872 0.00978238487098792
1873 0.00645368466428585
1874 0.00539599324971757
1875 0.00599571751891719
1876 0.00691995324179907
1877 0.0085672914609284
1878 0.00809677573975402
1879 0.00863137085009511
1880 0.00778237855622403
1881 0.00796370426947609
1882 0.00654074569440708
1883 0.00593319407356476
1884 0.00521983385835433
1885 0.00463596257975496
1886 0.00439106124230193
1887 0.00459467087630906
1888 0.00542905703702622
1889 0.00550626984491171
1890 0.00530140556965206
1891 0.00533800498852896
1892 0.00547158506981936
1893 0.00571572532445922
1894 0.00479033908173202
1895 0.0061228727284212
1896 0.00739612997882786
1897 0.00971666021078792
1898 0.00828976458447844
1899 0.00681352360561505
1900 0.0050305056253895
1901 0.00480499802169258
1902 0.00510535221460234
1903 0.00581561535249699
1904 0.00622394116548245
1905 0.00567642369913478
1906 0.0042423304465539
1907 0.00444910492249543
1908 0.00538414313599055
1909 0.00737277787831974
1910 0.00786619770921485
1911 0.00786155786502402
1912 0.0066662930970425
1913 0.00651374950711493
1914 0.00721212819819862
1915 0.00850660510033979
1916 0.00821357992987891
1917 0.00663474695031457
1918 0.00513349975089265
1919 0.00425685890823818
1920 0.00402359817226423
1921 0.00413528966753852
1922 0.00457622028490176
1923 0.00760304363363199
1924 0.0102110015589637
1925 0.0126379703905286
1926 0.0107157921969979
1927 0.00897113921266484
1928 0.00788897261621615
1929 0.00917670290174202
1930 0.00996304628138963
1931 0.0107169527613754
1932 0.010391260768453
1933 0.0110409517233923
1934 0.0109468838838262
1935 0.0114635052502889
1936 0.0111239239775311
};
\nextgroupplot[
xmin=1836.25, xmax=1940.75,
ymin=0.00227937753773833, ymax=0.0396484577626716,
xtick={1840,1845,1850,1855,1860,1865,1870,1875,1880,1885,1890,1895,1900,1905,1910,1915,1920,1925,1930,1935},
xticklabels={},
minor xtick={1820,1840,1860,1880,1900,1920,1940,1960},
minor xticklabels={},
tick align=outside,
xticklabel style = {rotate=30},
tick pos=left,
x grid style={white!69.01960784313725!black},
y grid style={white!69.01960784313725!black},
legend style={draw=white!80.0!black},
legend cell align={left},
unbounded coords=jump,
legend entries={{anthropology}}
]
\addlegendimage{no markers, color0}
\addlegendimage{no markers, color1}
\addplot [semithick, color1]
table {%
1837 nan
1838 nan
1839 nan
1840 nan
1841 0.0109526309363319
1842 0.0107075203293587
1843 0.0123213949641846
1844 0.0147862193464461
1845 0.0160494125908788
1846 0.0172567196661362
1847 0.0204892296249694
1848 0.0230798931552588
1849 0.0243574637962259
1850 0.0217281329189139
1851 0.0182296291843361
1852 0.0152958654122573
1853 0.0124827132038503
1854 0.010358347117056
1855 0.0100618575363064
1856 0.0160842944979941
1857 0.0234842204833083
1858 0.0293241233274494
1859 0.0250051350028381
1860 0.0194709026535646
1861 0.0142106271471284
1862 0.0146056232801344
1863 0.0145245182191805
1864 0.0139475753986176
1865 0.0150187565631212
1866 0.0164106816221698
1867 0.0186947257952726
1868 0.0196157483075454
1869 0.0263602143400716
1870 0.0309979883625905
1871 0.0379498632069928
1872 0.0353147595225146
1873 0.0352658168797101
1874 0.0273033200423103
1875 0.0230971020380082
1876 0.0167414895196316
1877 0.0157492937514847
1878 0.0137410639389878
1879 0.0131018523551158
1880 0.01229515419296
1881 0.0154015231438065
1882 0.0176908037690029
1883 0.0183766750436752
1884 0.0180502454587036
1885 0.0177092511416516
1886 0.0186628594171149
1887 0.0136369661237836
1888 0.0115201093239976
1889 0.00960692254204155
1890 0.0123616575896158
1891 0.0122576775629758
1892 0.0144625694654539
1893 0.0174036297355353
1894 0.0195936574187133
1895 0.0178692763734034
1896 0.0167770960815814
1897 0.0185952806465998
1898 0.0224938944515871
1899 0.0229912970550256
1900 0.0200872388316055
1901 0.0146499872049617
1902 0.0116340724676244
1903 0.0102983260455479
1904 0.0113477971839681
1905 0.0113323428276746
1906 0.0103507199290789
1907 0.0102408995933148
1908 0.0116207543188567
1909 0.0145786475803662
1910 0.0151357987469333
1911 0.0131439443149348
1912 0.0127009290841897
1913 0.0128378217572668
1914 0.0140890066922136
1915 0.0104387399755979
1916 0.00709119876880019
1917 0.00408862730527441
1918 0.00397797209341712
1919 0.00570614170984148
1920 0.00734763315036465
1921 0.0100669331567486
1922 0.00995543376918956
1923 0.0110281011536826
1924 0.00957694753194321
1925 0.0092775113978026
1926 0.0066828740729837
1927 0.00603602268752941
1928 0.0066896933973592
1929 0.0103317669534262
1930 0.0134267475363256
1931 0.0142841823366098
1932 0.0121346848452883
1933 0.00928601936155044
1934 0.00662483950122805
1935 0.00632165282074008
1936 0.00686627881063689
};
\nextgroupplot[
xmin=1836.25, xmax=1940.75,
ymin=-2.35673145681419e-05, ymax=0.109840692388825,
xtick={1840,1845,1850,1855,1860,1865,1870,1875,1880,1885,1890,1895,1900,1905,1910,1915,1920,1925,1930,1935},
xticklabels={},
minor xtick={1820,1840,1860,1880,1900,1920,1940,1960},
minor xticklabels={},
tick align=outside,
xticklabel style = {rotate=30},
tick pos=left,
x grid style={white!69.01960784313725!black},
y grid style={white!69.01960784313725!black},
legend entries={{art}},
legend cell align={left},
legend style={at={(0.03,0.97)}, anchor=north west, draw=white!80.0!black},
unbounded coords=jump
]
\addlegendimage{no markers, color0}
\addlegendimage{no markers, color1}
\addlegendimage{no markers, color2}
\addplot [semithick, color2]
table {%
1837 nan
1838 nan
1839 nan
1840 nan
1841 0.0137248906058605
1842 0.0131039680643173
1843 0.00898694074525489
1844 0.0084929364156652
1845 0.00926745621882851
1846 0.0111362069222941
1847 0.00937755096932354
1848 0.00630784322397125
1849 0.00497026267194971
1850 0.00727600049280378
1851 0.0110872025063284
1852 0.01375322434146
1853 0.0127897722533324
1854 0.0097481736657667
1855 0.00748825037397359
1856 0.00795205153039862
1857 0.00939314123374402
1858 0.00893789423183004
1859 0.00681703734853537
1860 0.00537534460625643
1861 0.00550052430786726
1862 0.00777727910144676
1863 0.00925868765374263
1864 0.00999274777334196
1865 0.0075675738187518
1866 0.00613328088602177
1867 0.00607932252912886
1868 0.0104398247238464
1869 0.0149826646616526
1870 0.018046766360006
1871 0.0172509561320295
1872 0.0148213919852272
1873 0.0127110553858485
1874 0.0113070194190357
1875 0.0113177671204407
1876 0.0142314088887064
1877 0.0172036204927887
1878 0.0191236379287242
1879 0.0176467595651009
1880 0.0166103296617798
1881 0.0155574904695312
1882 0.015397022050182
1883 0.0173341602490495
1884 0.019930189423898
1885 0.021770302456951
1886 0.021244066513955
1887 0.025457897272127
1888 0.0335317553797836
1889 0.0409916943976138
1890 0.040200034506054
1891 0.0349262171054458
1892 0.0318307108052649
1893 0.0319756238419965
1894 0.0355682879131728
1895 0.0411165683383072
1896 0.0544207821226526
1897 0.0698380630351683
1898 0.0842664534458524
1899 0.0891109397465912
1900 0.0903935878177309
1901 0.0902433296434108
1902 0.0947777422198391
1903 0.09661909582351
1904 0.0947430929602812
1905 0.0853276812770976
1906 0.0773255150697752
1907 0.0733226180470739
1908 0.0748878422655126
1909 0.0760436569922705
1910 0.0757567423321461
1911 0.0774717846626471
1912 0.080423979155714
1913 0.0820384889002778
1914 0.0743006434157299
1915 0.0625473583489035
1916 0.0514569646201279
1917 0.0453664614933081
1918 0.0429874903545119
1919 0.0407611089193678
1920 0.0433447230160103
1921 0.0467568092893392
1922 0.0537278083212666
1923 0.0576381298737816
1924 0.0590094356008422
1925 0.0557413121817313
1926 0.0543459924044277
1927 0.0551190669336974
1928 0.0581529664884278
1929 0.0583144958893879
1930 0.0612613609206644
1931 0.0660614643612184
1932 0.0748815877551958
1933 0.0816964021269339
1934 0.0909048062307597
1935 0.0976294289447171
1936 0.104846862402307
};
\nextgroupplot[
xmin=1836.25, xmax=1940.75,
ymin=0.00208100203407974, ymax=0.0312232454031494,
xtick={1840,1845,1850,1855,1860,1865,1870,1875,1880,1885,1890,1895,1900,1905,1910,1915,1920,1925,1930,1935},
xticklabels={},
minor xtick={1820,1840,1860,1880,1900,1920,1940,1960},
minor xticklabels={},
tick align=outside,
xticklabel style = {rotate=30},
tick pos=left,
x grid style={white!69.01960784313725!black},
y grid style={white!69.01960784313725!black},
legend cell align={left},
legend style={at={(0.03,0.97)}, anchor=north west, draw=white!80.0!black},
unbounded coords=jump,
legend entries={{art history}}
]
\addlegendimage{no markers, color0}
\addlegendimage{no markers, color1}
\addlegendimage{no markers, color2}
\addlegendimage{no markers, color3}
\addplot [semithick, color3]
table {%
1837 nan
1838 nan
1839 nan
1840 nan
1841 0.00646340728677488
1842 0.00594361040735849
1843 0.00473676310588821
1844 0.00386346198009354
1845 0.00340564945994654
1846 0.00351490074681098
1847 0.00395662307119614
1848 0.00399119982136477
1849 0.0053506084286836
1850 0.00559206823895566
1851 0.00658030858705969
1852 0.00558722004128893
1853 0.0066202684374793
1854 0.00759292223263704
1855 0.00867645729622129
1856 0.00788052051734667
1857 0.00711433681282061
1858 0.00829197153199049
1859 0.00955623159296061
1860 0.00935062489185788
1861 0.00710309095397103
1862 0.00554385425047915
1863 0.0046771144903788
1864 0.00663226844753555
1865 0.00877154587714004
1866 0.0112101615852869
1867 0.0097529073056219
1868 0.0112490166427569
1869 0.0135696750273963
1870 0.0196002953707332
1871 0.0189794357809458
1872 0.0180988017194623
1873 0.0138233492132511
1874 0.0132610596049795
1875 0.0111977437753315
1876 0.010813251050422
1877 0.0109502125269501
1878 0.0131461167580306
1879 0.0152195676976892
1880 0.0159544438204951
1881 0.0142747577239927
1882 0.0114862173193286
1883 0.00947618510577462
1884 0.0116570739810287
1885 0.0144760505353424
1886 0.0165647278954566
1887 0.0131795085564793
1888 0.0111717598891927
1889 0.00967679473291759
1890 0.0127720064952478
1891 0.0193977383977552
1892 0.0252987833826208
1893 0.0277083551073803
1894 0.0210417988815203
1895 0.0156321653578036
1896 0.0117435315850243
1897 0.0114613856603683
1898 0.0106230513976142
1899 0.00921398574901862
1900 0.00934633024208627
1901 0.00926135977780026
1902 0.011128698607043
1903 0.0114930807280492
1904 0.0121432257843455
1905 0.011442834404281
1906 0.0122732005462846
1907 0.0122643578065941
1908 0.0126383582594119
1909 0.0126892913006789
1910 0.0150660797395782
1911 0.0158581829274832
1912 0.016886566713361
1913 0.0162460532196746
1914 0.0214654890129774
1915 0.0257496774719988
1916 0.0298985979772826
1917 0.02450693347843
1918 0.0189150603311848
1919 0.0138275847727982
1920 0.0141110666153913
1921 0.014995974584306
1922 0.0141868636237632
1923 0.0118762409794423
1924 0.0100119074343941
1925 0.0102919769212298
1926 0.0109636439111051
1927 0.011655220836878
1928 0.011482196503544
1929 0.0125504043740471
1930 0.0121280863630899
1931 0.0129076985096819
1932 0.0130461345478478
1933 0.0143888637159964
1934 0.0134710229233532
1935 0.0138476669939488
1936 0.0155945267980542
};
\nextgroupplot[
xmin=1836.25, xmax=1940.75,
ymin=-0.000195329226676853, ymax=0.0188531633344869,
tick align=outside,
xticklabel style = {rotate=30},
tick pos=left,
x grid style={white!69.01960784313725!black},
y grid style={white!69.01960784313725!black},
legend entries={{biology}},
legend style={draw=white!80.0!black},
legend cell align={left},
unbounded coords=jump
]
\addlegendimage{no markers, color0}
\addlegendimage{no markers, color1}
\addlegendimage{no markers, color2}
\addlegendimage{no markers, color3}
\addlegendimage{no markers, color4}
\addplot [semithick, color4]
table {%
1837 nan
1838 nan
1839 nan
1840 nan
1841 0.00486709600733724
1842 0.00596509688346537
1843 0.00432688879473315
1844 0.00276322995625833
1845 0.00111761410293335
1846 0.00089620076279415
1847 0.000670511344285135
1848 0.00309667213737283
1849 0.00547627376293273
1850 0.00868510989648838
1851 0.00719562991549259
1852 0.00617586013475425
1853 0.00371232897954441
1854 0.00338855259070669
1855 0.00283397899760176
1856 0.00290250297937039
1857 0.00293356547786061
1858 0.00232649236685726
1859 0.00184971492918369
1860 0.00146717488209763
1861 0.00322960261653786
1862 0.00485579630026854
1863 0.00742369605079476
1864 0.00832937608071739
1865 0.00957296924683406
1866 0.00997304254192007
1867 0.00964282773873037
1868 0.0092877193068451
1869 0.0076203433437993
1870 0.00694634850562023
1871 0.00712222320544874
1872 0.00897655773544809
1873 0.00943437082956835
1874 0.00899541127127653
1875 0.00888742705622765
1876 0.0100292292377794
1877 0.00954868547232005
1878 0.00762373457095893
1879 0.00556893214396976
1880 0.00527470473892638
1881 0.00576295514356515
1882 0.00613644379014507
1883 0.00659315765599584
1884 0.00645958251641332
1885 0.00656045378185076
1886 0.00538431244729054
1887 0.00501958236264323
1888 0.00588453986012559
1889 0.00744625268584463
1890 0.00870942070395763
1891 0.00779180970574266
1892 0.00745861913907851
1893 0.00677467510609454
1894 0.00667621947799388
1895 0.00645841503678134
1896 0.00719397691139218
1897 0.0075799358784631
1898 0.00738626933169447
1899 0.00598683828482333
1900 0.00554967421991629
1901 0.00616321470250922
1902 0.00777956456472061
1903 0.0107140631579594
1904 0.0140152750424376
1905 0.0176377276909155
1906 0.0179873227635249
1907 0.0159880746432085
1908 0.0130351495522266
1909 0.0117599849068029
1910 0.0116099788918847
1911 0.011304834098155
1912 0.0102464269266673
1913 0.0082156130202596
1914 0.00551473457833001
1915 0.00378664490248563
1916 0.0071681739632494
1917 0.0122368910896916
1918 0.0170254159510629
1919 0.0142504315127654
1920 0.0102566773737054
1921 0.00609516406288751
1922 0.00543023606777145
1923 0.0053522760445301
1924 0.00543618844497157
1925 0.00501106189154951
1926 0.00428438595035156
1927 0.00429793003297618
1928 0.0049890541358132
1929 0.00579351352362462
1930 0.00566645741791187
1931 0.00529758256928087
1932 0.00549733213910662
1933 0.0046249817980879
1934 0.00383663251293203
1935 0.00356772196919842
1936 0.0047657514223071
};
\nextgroupplot[
xmin=1836.25, xmax=1940.75,
ymin=-0.000428066527550818, ymax=0.0211049972218787,
tick align=outside,
xticklabel style = {rotate=30},
tick pos=left,
x grid style={white!69.01960784313725!black},
y grid style={white!69.01960784313725!black},
legend style={draw=white!80.0!black},
legend entries={{chemistry}},
legend cell align={left},
unbounded coords=jump
]
\addlegendimage{no markers, color0}
\addlegendimage{no markers, color1}
\addlegendimage{no markers, color2}
\addlegendimage{no markers, color3}
\addlegendimage{no markers, color4}
\addlegendimage{no markers, color5}
\addplot [semithick, color5]
table {%
1837 nan
1838 nan
1839 nan
1840 nan
1841 0.00714565058294486
1842 0.00646325073325392
1843 0.00639749503910833
1844 0.00688294409731801
1845 0.00784767373774129
1846 0.0126439142130153
1847 0.0173457860722945
1848 0.0201262215969046
1849 0.0141499063041945
1850 0.00911501235474866
1851 0.00594883687133713
1852 0.00980970467456801
1853 0.011260019185531
1854 0.0120365007504688
1855 0.0085393361206785
1856 0.00717181782169973
1857 0.00627821734599365
1858 0.00704673997117627
1859 0.00603919577750705
1860 0.00456076059192077
1861 0.00314830035272785
1862 0.00289399900771059
1863 0.00341437492291005
1864 0.00410442497616259
1865 0.00498562901096496
1866 0.00551253478690544
1867 0.00581642175209001
1868 0.0051042736414249
1869 0.00378024344601929
1870 0.00337750497713943
1871 0.00352737450420035
1872 0.00421338884703144
1873 0.00319221370923136
1874 0.00305310442870955
1875 0.00321706100917001
1876 0.00427166699664541
1877 0.00376531074473026
1878 0.00288108428494777
1879 0.00198660964965964
1880 0.00164840065680336
1881 0.00116680025779993
1882 0.000830352662180505
1883 0.000744365376527235
1884 0.000899344895092074
1885 0.000901305652342267
1886 0.000792921331361008
1887 0.000643543514949367
1888 0.00156432859522384
1889 0.00255469055779637
1890 0.00366673612340188
1891 0.00464153565609296
1892 0.0055307347120106
1893 0.00722690959249424
1894 0.00688240124721536
1895 0.00818691575533295
1896 0.00765871480446852
1897 0.00778034039548301
1898 0.0047370652417966
1899 0.00264262232131942
1900 0.00116508235886512
1901 0.00120289554181202
1902 0.00110396880519501
1903 0.000838270591922689
1904 0.00064420994529731
1905 0.000614512561785179
1906 0.00055070909742325
1907 0.000653096526687275
1908 0.000737560346717853
1909 0.000953191454654087
1910 0.000878959609710566
1911 0.000981955026367763
1912 0.00117247560654555
1913 0.00150206257868983
1914 0.00158726164281436
1915 0.00160459445083284
1916 0.00165885457321716
1917 0.00154902534771079
1918 0.00153646498223578
1919 0.00147172295819726
1920 0.00199469029341041
1921 0.00277277935653173
1922 0.00465539411986053
1923 0.0062882319951743
1924 0.00690952753906357
1925 0.00522942586551128
1926 0.00284424022933965
1927 0.00141916971198144
1928 0.00112625558397718
1929 0.0014415759985948
1930 0.00203381201452481
1931 0.00264863201861469
1932 0.00385007893990203
1933 0.00347373837227375
1934 0.0031047791156248
1935 0.00150884244961465
1936 0.00167479803884716
};
\nextgroupplot[
xmin=0, xmax=1935,
ymin=0, ymax=1,
tick align=outside,
xticklabel style = {rotate=30},
tick pos=left,
x grid style={white!69.01960784313725!black},
y grid style={white!69.01960784313725!black}
]
\nextgroupplot[
xmin=0, xmax=1935,
ymin=0, ymax=1,
tick align=outside,
xticklabel style = {rotate=30},
tick pos=left,
x grid style={white!69.01960784313725!black},
y grid style={white!69.01960784313725!black}
]
\nextgroupplot[
xmin=0, xmax=1935,
ymin=0, ymax=1,
tick align=outside,
xticklabel style = {rotate=30},
tick pos=left,
x grid style={white!69.01960784313725!black},
y grid style={white!69.01960784313725!black}
]
\nextgroupplot[
xmin=0, xmax=1935,
ymin=0, ymax=1,
tick align=outside,
xticklabel style = {rotate=30},
tick pos=left,
x grid style={white!69.01960784313725!black},
y grid style={white!69.01960784313725!black}
]
\nextgroupplot[
xmin=0, xmax=1935,
ymin=0, ymax=1,
tick align=outside,
xticklabel style = {rotate=30},
tick pos=left,
x grid style={white!69.01960784313725!black},
y grid style={white!69.01960784313725!black}
]
\nextgroupplot[
xmin=0, xmax=1935,
ymin=0, ymax=1,
tick align=outside,
xticklabel style = {rotate=30},
tick pos=left,
x grid style={white!69.01960784313725!black},
y grid style={white!69.01960784313725!black}
]
\nextgroupplot[
xmin=0, xmax=1935,
ymin=0, ymax=1,
tick align=outside,
xticklabel style = {rotate=30},
tick pos=left,
x grid style={white!69.01960784313725!black},
y grid style={white!69.01960784313725!black}
]
\nextgroupplot[
xmin=0, xmax=1935,
ymin=0, ymax=1,
tick align=outside,
xticklabel style = {rotate=30},
tick pos=left,
x grid style={white!69.01960784313725!black},
y grid style={white!69.01960784313725!black}
]
\nextgroupplot[
xmin=0, xmax=1935,
ymin=0, ymax=1,
tick align=outside,
xticklabel style = {rotate=30},
tick pos=left,
x grid style={white!69.01960784313725!black},
y grid style={white!69.01960784313725!black}
]
\nextgroupplot[
xmin=0, xmax=1935,
ymin=0, ymax=1,
tick align=outside,
xticklabel style = {rotate=30},
tick pos=left,
x grid style={white!69.01960784313725!black},
y grid style={white!69.01960784313725!black}
]
\nextgroupplot[
xmin=0, xmax=1935,
ymin=0, ymax=1,
tick align=outside,
xticklabel style = {rotate=30},
tick pos=left,
x grid style={white!69.01960784313725!black},
y grid style={white!69.01960784313725!black}
]
\nextgroupplot[
xmin=0, xmax=1935,
ymin=0, ymax=1,
tick align=outside,
xticklabel style = {rotate=30},
tick pos=left,
x grid style={white!69.01960784313725!black},
y grid style={white!69.01960784313725!black}
]
\nextgroupplot[
xmin=0, xmax=1935,
ymin=0, ymax=1,
tick align=outside,
xticklabel style = {rotate=30},
tick pos=left,
x grid style={white!69.01960784313725!black},
y grid style={white!69.01960784313725!black}
]
\nextgroupplot[
xmin=0, xmax=1935,
ymin=0, ymax=1,
tick align=outside,
xticklabel style = {rotate=30},
tick pos=left,
x grid style={white!69.01960784313725!black},
y grid style={white!69.01960784313725!black}
]
\nextgroupplot[
xmin=0, xmax=1935,
ymin=0, ymax=1,
tick align=outside,
xticklabel style = {rotate=30},
tick pos=left,
x grid style={white!69.01960784313725!black},
y grid style={white!69.01960784313725!black}
]
\nextgroupplot[
xmin=0, xmax=1935,
ymin=0, ymax=1,
tick align=outside,
xticklabel style = {rotate=30},
tick pos=left,
x grid style={white!69.01960784313725!black},
y grid style={white!69.01960784313725!black}
]
\nextgroupplot[
xmin=0, xmax=1935,
ymin=0, ymax=1,
tick align=outside,
xticklabel style = {rotate=30},
tick pos=left,
x grid style={white!69.01960784313725!black},
y grid style={white!69.01960784313725!black}
]
\nextgroupplot[
xmin=0, xmax=1935,
ymin=0, ymax=1,
tick align=outside,
xticklabel style = {rotate=30},
tick pos=left,
x grid style={white!69.01960784313725!black},
y grid style={white!69.01960784313725!black}
]
\nextgroupplot[
xmin=0, xmax=1935,
ymin=0, ymax=1,
tick align=outside,
xticklabel style = {rotate=30},
tick pos=left,
x grid style={white!69.01960784313725!black},
y grid style={white!69.01960784313725!black}
]
\nextgroupplot[
xmin=0, xmax=1935,
ymin=0, ymax=1,
tick align=outside,
xticklabel style = {rotate=30},
tick pos=left,
x grid style={white!69.01960784313725!black},
y grid style={white!69.01960784313725!black}
]
\nextgroupplot[
xmin=0, xmax=1935,
ymin=0, ymax=1,
tick align=outside,
xticklabel style = {rotate=30},
tick pos=left,
x grid style={white!69.01960784313725!black},
y grid style={white!69.01960784313725!black}
]
\nextgroupplot[
xmin=0, xmax=1935,
ymin=0, ymax=1,
tick align=outside,
xticklabel style = {rotate=30},
tick pos=left,
x grid style={white!69.01960784313725!black},
y grid style={white!69.01960784313725!black}
]
\nextgroupplot[
xmin=0, xmax=1935,
ymin=0, ymax=1,
tick align=outside,
xticklabel style = {rotate=30},
tick pos=left,
x grid style={white!69.01960784313725!black},
y grid style={white!69.01960784313725!black}
]
\nextgroupplot[
xmin=0, xmax=1935,
ymin=0, ymax=1,
tick align=outside,
xticklabel style = {rotate=30},
tick pos=left,
x grid style={white!69.01960784313725!black},
y grid style={white!69.01960784313725!black}
]
\end{groupplot}

\end{tikzpicture}