,philosophy,sciences,theology
1837,0.005425620950063603,0.019888220702569015,0.11659797942320438
1838,0.005123316816025181,0.042958676007401664,0.12077278480046516
1839,0.0039030338132306497,0.03340291664039796,0.09661407481166862
1840,0.0070913998106334475,0.04955216616997404,0.11311644938996324
1841,0.007942227378521238,0.01612420581295737,0.08708364849996997
1842,0.0006001470372893891,0.03293585882727257,0.06539141000985182
1843,0.00945917125136475,0.023461347783040765,0.13758831865925458
1844,0.006044665452918707,0.02597071961133679,0.10118777591014805
1845,0.020983035123208538,0.03971887407874419,0.22747006663240654
1846,0.005924087277037415,0.05958790304680406,0.15721965774628188
1847,0.003972628637257003,0.024778556971057242,0.1844768998391828
1848,0.006613232418658299,0.04987972934492291,0.16778661133628248
1849,0.0031903889666864416,0.021193568701903587,0.17620803528075157
1850,0.018876872343753348,0.056307800253648566,0.13977585791781166
1851,0.01733039443740836,0.026683663642302236,0.04943967080225775
1852,0.014943543195840903,0.03850900877779395,0.18272537384302723
1853,0.00257179258215956,0.06115159432914652,0.17531428701829554
1854,0.01444765967693229,0.01646688550295039,0.153195824040381
1855,0.014927416156353956,0.03183026261666555,0.09261351236102655
1856,0.02206111371526731,0.02774190402888621,0.09904346127677854
1857,0.012024259293525574,0.014503390069592115,0.09774877367431145
1858,0.008416087180535214,0.062281673593588494,0.12273635451617793
1859,0.044490250804926745,0.0063821708097293595,0.1604199549998384
1860,0.016906966298392945,0.011706636739461374,0.1330572640417813
1861,0.0355869793711463,0.04314582211333118,0.15961351569688986
1862,0.008876277057794368,0.014525832709040287,0.08070746831765518
1863,0.004967574856891588,0.036235341573558344,0.07727445748275841
1864,0.02443495817715302,0.03790825384987784,0.06447781718992474
1865,0.021704887398300343,0.02544800133091485,0.10175337443189392
1866,0.020500287319009658,0.034731218565866584,0.08401131265395634
1867,0.035448442131610136,0.025748777919091026,0.07878497223487102
1868,0.04194998490487478,0.03854038828455941,0.05381454496875904
1869,0.04120449475126975,0.007823398209495736,0.06542959896631828
1870,0.0442591625507589,0.04805244755436888,0.04597999867800695
1871,0.11598040740014426,0.03996288626723299,0.092834993090122
1872,0.06267317600492106,0.045958656751622584,0.04995134005713453
1873,0.075824270328269,0.02289847731987038,0.06339249731507834
1874,0.070991675627738,0.04137821532606267,0.06951607748987954
1875,0.0974624256491552,0.03921804665549189,0.03457967297697451
1876,0.06136707461723745,0.022065935027114847,0.07276312459987366
1877,0.04442610785099532,0.02655069769991769,0.07253707960256861
1878,0.056561980866433714,0.03264171579724007,0.03088710590526489
1879,0.03174518148989591,0.01545479189536536,0.04719446133924521
1880,0.0624760826850661,0.04792793946330676,0.04450212152357835
1881,0.07814408504430048,0.02151051946344751,0.03188310072624745
1882,0.05070108375906557,0.014107363481343782,0.03170101146372417
1883,0.04015978619531779,0.022129593584452323,0.02995861389382526
1884,0.02143667169167429,0.018850252820186597,0.060772862201417865
1885,0.037407010305230415,0.011619083392247376,0.04326859525997406
1886,0.047741134679370134,0.03032712590305664,0.07677281001178926
1887,0.0544039884907761,0.024373680366522876,0.015182732795551601
1888,0.05163167195365759,0.03339468424547931,0.06141575880815253
1889,0.1114966251544729,0.010224985885201932,0.04954918394503238
1890,0.054879272251127986,0.016650707211908866,0.05670340246319938
1891,0.03139149534035823,0.03679172610287651,0.029803067894306423
1892,0.03787662171214379,0.01515460006817193,0.04054871557502793
1893,0.06001978216380621,0.023370481467964055,0.06208921498949849
1894,0.04664031480047015,0.03158986533657071,0.04156465505752749
1895,0.0494922006764682,0.05071028581505743,0.015649081193032544
1896,0.07453205144815911,0.021125950403416027,0.020408392178865142
1897,0.02053835518017877,0.025856195708797713,0.01835981974295464
1898,0.05522868025087746,0.018263022595760958,0.021044050047862584
1899,0.01709676862157039,0.023016112602988414,0.01773625871561535
1900,0.032140548872121144,0.046189154846615565,0.020848515794455125
1901,0.025770522092329884,0.024752173848128223,0.0241913005323795
1902,0.013838596626442268,0.03622885270851839,0.011775687951626423
1903,0.022317459979149135,0.03730345064957419,0.014135694206174776
1904,0.04361562044243783,0.05044800338021105,0.009955573767740589
1905,0.017392137830029242,0.0741423503192209,0.017092631650882595
1906,0.02947133503630539,0.016866322210944418,0.016356184339201718
1907,0.048409657312731724,0.03689189701151463,0.04295780227664636
1908,0.02995991610441706,0.02216333302590101,0.017951468700061923
1909,0.022162536663472565,0.019041309502426884,0.03805826246252764
1910,0.07225533305700083,0.022346414537537385,0.026790354518311688
1911,0.05536696271155961,0.025756655209193013,0.028808798810700864
1912,0.029357017246184114,0.013587352719014234,0.02048609837618187
1913,0.02718767922851839,0.014801305780679286,0.006889572032719116
1914,0.04400192368484568,0.03400424208189179,0.023502703988810936
1915,0.02298865582815779,0.014259859656817753,0.00793383499689071
1916,0.06895581598291756,0.05562761910289282,0.01221774839120826
1917,0.04498173332831357,0.03677790390406699,0.017930995978986175
1918,0.03970120823385059,0.013829299415647256,0.014388351731668081
1919,0.02267090219538659,0.031237407070420886,0.013696887856553985
1920,0.033479920424724696,0.02832529935517414,0.01701436513644694
1921,0.05367593024857342,0.05365104005863941,0.013534623719351657
1922,0.11244145726959687,0.04335042518869159,0.03235018718180527
1923,0.09850142450886779,0.03814582810446154,0.00819346453874914
1924,0.06899546770182496,0.022111344490440388,0.007537745248441752
1925,0.05866495749398837,0.020120342666814395,0.02382941970597585
1926,0.05204652121756226,0.01779831246312824,0.018889678271762023
1927,0.05908217186515685,0.04117602517192154,0.014384093076046156
1928,0.045172611717134714,0.016814920111642095,0.009791416664370445
1929,0.06256440418655984,0.009569875601073363,0.011609194414859303
1930,0.06976825229060069,0.031291215422470486,0.012764070808543693
1931,0.06651862717990298,0.012854839915235061,0.015611936556183537
1932,0.06133270950158476,0.020633943164511948,0.006072464072531147
1933,0.06389998462827862,0.02692060996685086,0.02877709377798965
1934,0.05135782628394736,0.021520268278209187,0.015401143716189836
1935,0.08595678922574734,0.0513592233272675,0.023955595103302585
1936,0.045540439314208925,0.021552945839403037,0.024339179291473556
