1837,2565,2186
1837,3125,2739
1837,2204,1876
1837,2647,2269
1837,1097,952
1837,2036,1758
1837,667,584
1837,3078,2595
1837,3361,2876
1837,1135,984
1837,517,442
1837,3992,3360
1837,2256,1964
1837,402,338
1837,3286,2850
1837,3329,2900
1837,1309,1121
1837,1417,1195
1837,1976,1698
1837,3022,2611
1837,1553,1336
1837,1887,1599
1837,4752,3995
1837,1272,1092
1837,2259,1911
1837,1231,1079
1837,1115,986
1837,6931,5981
1837,1459,1213
1837,533,461
1837,3264,2807
1837,1472,1306
1837,3980,3415
1837,1483,1266
1837,1361,1146
1837,1821,1528
1837,4270,3671
1837,2445,2114
1837,4683,4104
1837,1339,1158
1837,1279,1101
1837,2227,1872
1837,844,720
1837,1424,1226
1837,3215,2702
1837,1420,1172
1837,214,183
1837,914,771
1837,4873,4234
1837,2345,1997
1837,1872,1591
1837,6245,5220
1837,3646,3053
1837,9459,7350
1837,2469,2096
1837,1647,1440
1837,1422,1197
1837,4862,4033
1837,3380,2815
1837,901,767
1837,1616,1371
1837,4576,3900
1837,6639,5745
1837,2736,2251
1837,2196,1826
1837,3355,2877
1837,3163,2722
1837,3382,2825
1837,4468,3771
1837,2059,1762
1837,1358,1176
1837,5303,4601
1837,5333,4505
1837,3917,3424
1837,4813,3843
1837,3151,2636
1837,1776,1539
1837,2214,1922
1837,2189,1829
1837,4685,3964
1837,4810,4069
1837,2600,2249
1837,4146,3449
1837,3205,2735
1837,2754,2316
1837,3886,3240
1837,3529,3013
1837,1159,1010
1837,4022,3426
1837,3604,2945
1837,1336,1162
1837,3555,3012
1837,4144,3526
1837,3201,2726
1837,3377,2875
1837,4964,4259
1837,4478,3715
1837,1679,1415
1837,8597,7214
1837,3335,2843
1837,3571,3075
1837,5496,4819
1837,3569,3134
1837,3201,2790
1837,3883,3255
1837,1261,1077
1837,4552,3880
1837,4704,3932
1837,4101,3381
1837,7125,5912
1837,2665,2213
1837,1612,1381
1837,1720,1437
1837,812,661
1837,414,360
1837,1319,1052
1837,5899,5108
1837,3644,3077
1837,4372,3674
1837,2411,2094
1837,1069,913
1837,261,225
1837,132,113
1837,168,139
1837,395,321
1837,228,192
1837,118,98
1837,4824,4133
1837,7811,6621
1837,2470,2064
1837,3801,3240
1837,1280,1037
1837,1064,891
1837,5504,4753
1837,8800,7395
1837,3412,2779
1837,7190,6242
1837,4013,3419
1837,5820,4934
1837,267,212
1837,100,78
1837,9376,8106
1837,3306,2762
1837,5090,4261
1837,1804,1469
1837,631,515
1837,194,154
1837,4778,4034
1837,3958,3438
1837,3684,3199
1837,4284,3598
1837,577,470
1837,140,111
1837,4806,4100
1837,4525,3880
1837,4205,3509
1837,81,69
1837,643,544
1837,1730,1435
1837,6909,5843
1837,5344,4557
1837,830,713
1837,1617,1302
1837,3178,2682
1837,5385,4657
1837,2748,2345
1837,2752,2362
1837,8076,6773
1837,4636,3942
1837,3829,3303
1837,246,205
1837,7393,6403
1837,10551,8945
1837,1079,908
1838,1608,1300
1838,3598,3073
1838,1180,1022
1838,675,558
1838,1847,1579
1838,1370,1177
1838,1263,1083
1838,1770,1482
1838,4373,3667
1838,9180,7713
1838,2459,2073
1838,1711,1477
1838,5703,4885
1838,5365,4580
1838,3637,3112
1838,4239,3562
1838,4319,3679
1838,3333,2861
1838,1394,1151
1838,2584,2151
1838,4710,4092
1838,1417,1160
1838,1104,895
1838,6559,5621
1838,1953,1672
1838,2446,2047
1838,1787,1547
1838,6507,5558
1838,1521,1297
1838,4218,3634
1838,2870,2467
1838,3380,2750
1838,3765,3180
1838,4319,3641
1838,4439,3736
1838,1967,1713
1838,451,390
1838,4036,3469
1838,5534,4699
1838,7117,5986
1838,4312,3687
1838,3888,3247
1838,1985,1692
1838,5173,4444
1838,5074,4347
1838,2441,2114
1838,4604,3872
1838,3877,3276
1838,4097,3525
1838,3400,2948
1838,2225,1943
1838,3180,2593
1838,6498,5609
1838,5263,4427
1838,1778,1498
1838,6712,5732
1838,2082,1804
1838,3466,2978
1838,4768,4062
1838,8214,6942
1838,1378,1139
1838,4631,4035
1838,1561,1354
1838,5945,5163
1838,2565,2189
1838,4351,3732
1838,1232,1073
1838,4338,3723
1838,3345,2865
1838,3567,3049
1838,4269,3569
1838,7042,6033
1838,3790,3252
1838,2347,1986
1838,5945,5087
1838,4211,3610
1838,2565,2223
1838,6010,5098
1838,4322,3554
1838,2624,2263
1838,4170,3634
1838,2768,2400
1838,5000,4363
1838,2157,1825
1838,7609,6412
1838,1766,1511
1838,7681,6589
1838,1467,1232
1838,1273,1104
1838,954,792
1838,4159,3599
1838,9274,8028
1838,3439,2898
1838,2437,2002
1838,13205,11143
1838,2912,2437
1838,3957,3336
1838,382,315
1838,545,463
1838,3744,3266
1838,4462,3741
1838,5974,4982
1838,3848,3244
1838,1008,858
1838,957,782
1838,3487,3020
1838,8892,7566
1838,6544,5554
1838,1092,918
1838,6247,5344
1838,5778,4889
1838,4113,3442
1838,1180,990
1838,574,490
1838,310,263
1838,227,186
1838,247,205
1838,6310,5305
1838,4405,3747
1838,2934,2528
1838,3756,3186
1838,1769,1480
1838,244,198
1838,3349,2919
1838,7705,6455
1838,800,654
1838,404,336
1838,501,422
1838,573,471
1838,11874,10286
1838,2626,2246
1838,3013,2520
1838,663,560
1838,803,647
1838,165,135
1838,5373,4691
1838,6018,5093
1838,7824,6552
1838,484,406
1838,333,276
1838,14467,12179
1838,5393,4473
1838,735,595
1838,5113,4356
1838,4768,4079
1838,5845,4968
1838,1671,1373
1838,1919,1633
1838,484,391
1838,5709,4971
1838,2666,2292
1838,6079,5175
1838,4212,3505
1838,297,247
1838,196,160
1838,183,151
1838,6156,5264
1838,3489,2982
1839,3177,2749
1839,4929,4211
1839,2284,1970
1839,2531,2114
1839,4339,3747
1839,1636,1398
1839,5129,4437
1839,1885,1615
1839,1582,1392
1839,5137,4433
1839,2365,2069
1839,1221,1061
1839,3901,3407
1839,4027,3388
1839,1404,1163
1839,6547,5610
1839,6078,5253
1839,1612,1387
1839,2961,2591
1839,7038,5977
1839,5341,4610
1839,1160,1005
1839,2526,2163
1839,2656,2280
1839,4743,4073
1839,4206,3666
1839,3019,2596
1839,3117,2661
1839,2225,1875
1839,3076,2654
1839,3142,2715
1839,1342,1182
1839,2851,2472
1839,2724,2319
1839,2975,2549
1839,1691,1432
1839,1462,1205
1839,2509,2127
1839,2766,2405
1839,3345,2881
1839,1639,1414
1839,2314,1979
1839,3552,3055
1839,3057,2608
1839,3250,2683
1839,1717,1456
1839,4360,3755
1839,1280,1086
1839,4273,3769
1839,2529,2200
1839,1396,1130
1839,3425,2885
1839,4860,4198
1839,6307,5560
1839,4445,3858
1839,2650,2272
1839,3778,3306
1839,3201,2689
1839,2503,2133
1839,2273,1857
1839,3943,3480
1839,3040,2621
1839,5337,4626
1839,6918,5827
1839,664,578
1839,5111,4439
1839,4965,4293
1839,4104,3627
1839,2798,2414
1839,4366,3783
1839,1518,1295
1839,3580,3039
1839,2154,1867
1839,1804,1564
1839,2936,2382
1839,2417,2079
1839,1860,1637
1839,4765,4147
1839,1502,1289
1839,5749,4873
1839,10319,8629
1839,7645,6657
1839,3852,3334
1839,1870,1597
1839,3480,2978
1839,186,160
1839,4330,3764
1839,4044,3365
1839,6182,5182
1839,1096,926
1839,3435,2944
1839,570,473
1839,4937,4269
1839,8273,6974
1839,2740,2377
1839,1513,1308
1839,2648,2080
1839,3937,3334
1839,6326,5427
1839,9494,8193
1839,346,277
1839,661,542
1839,13270,11282
1839,7981,6810
1839,1858,1598
1839,141,117
1839,14767,12637
1839,6360,5448
1839,1990,1727
1839,290,240
1839,16585,14385
1839,6118,5300
1839,636,525
1839,13417,11708
1839,7018,6042
1839,2241,1928
1839,856,745
1839,166,136
1839,14,12
1839,7579,6488
1839,2445,2123
1839,5453,4756
1839,119,98
1839,2997,2597
1839,15684,13047
1839,4893,4162
1839,643,529
1839,377,314
1839,4674,4023
1839,4983,4337
1839,7426,6336
1839,1318,1141
1839,1097,883
1839,6404,5578
1839,12390,10546
1839,4058,3483
1839,93,78
1839,270,224
1839,8014,6954
1839,6037,5214
1839,4506,3884
1839,397,349
1839,887,730
1839,7215,6254
1839,2675,2246
1840,6611,5719
1840,2466,2134
1840,4389,3805
1840,4163,3575
1840,5887,5138
1840,3233,2759
1840,4808,4037
1840,3736,3157
1840,4372,3754
1840,8221,6984
1840,2205,1860
1840,2752,2323
1840,3724,3154
1840,3007,2453
1840,4574,3881
1840,3653,3056
1840,1495,1241
1840,2277,1934
1840,8119,6743
1840,9045,7710
1840,7059,6004
1840,1629,1372
1840,2238,1897
1840,8252,6998
1840,4678,4038
1840,2089,1648
1840,4276,3640
1840,1788,1496
1840,1360,1139
1840,3674,3147
1840,6584,5696
1840,5273,4538
1840,2919,2503
1840,2401,2039
1840,1275,1076
1840,2214,1844
1840,3718,3125
1840,4449,3647
1840,6757,5757
1840,1076,927
1840,1887,1626
1840,1499,1298
1840,1984,1693
1840,3952,3372
1840,3054,2608
1840,5764,4634
1840,1868,1627
1840,6241,5340
1840,2114,1808
1840,1761,1520
1840,4332,3710
1840,4753,4003
1840,3625,3140
1840,3021,2587
1840,3529,3057
1840,3421,2901
1840,265,220
1840,2167,1838
1840,6424,5530
1840,3398,2836
1840,4055,3407
1840,3969,3420
1840,3307,2765
1840,1288,1119
1840,4546,3885
1840,6141,5280
1840,1444,1252
1840,2215,1894
1840,4435,3795
1840,1809,1533
1840,1126,935
1840,5617,4881
1840,5918,4986
1840,5620,4608
1840,6488,5328
1840,5982,5158
1840,6064,5158
1840,1129,936
1840,980,841
1840,1955,1538
1840,5364,4678
1840,12318,10574
1840,1264,998
1840,5116,4402
1840,12206,10434
1840,5238,4413
1840,326,257
1840,4346,3733
1840,4319,3690
1840,11830,10060
1840,316,239
1840,5442,4622
1840,3829,3270
1840,7118,6151
1840,1990,1642
1840,2588,2211
1840,734,590
1840,4882,4135
1840,6011,5205
1840,6557,5628
1840,409,328
1840,12255,10446
1840,3253,2821
1840,5820,4916
1840,281,244
1840,5111,4454
1840,7889,6720
1840,4664,3928
1840,921,789
1840,355,301
1840,73,59
1840,500,395
1840,15595,13276
1840,2328,1977
1840,419,328
1840,180,149
1840,8075,6994
1840,4025,3517
1840,3425,2610
1840,23300,19624
1840,457,362
1840,4499,3898
1840,3087,2719
1840,10882,9273
1840,742,643
1840,263,224
1840,1741,1522
1840,7126,6144
1841,4756,3943
1841,8436,6785
1841,1312,1128
1841,3668,3166
1841,1096,938
1841,5765,4803
1841,392,327
1841,9683,7878
1841,4647,4013
1841,2527,2160
1841,3520,2953
1841,1818,1499
1841,2485,2093
1841,646,557
1841,6525,5526
1841,2956,2428
1841,6025,4999
1841,6699,5230
1841,243,205
1841,9657,8180
1841,3087,2603
1841,2571,2164
1841,2469,2068
1841,3428,2853
1841,4835,4068
1841,4301,3639
1841,3444,2891
1841,1640,1388
1841,4513,3803
1841,410,354
1841,3688,3128
1841,2406,2053
1841,10801,9081
1841,4464,3773
1841,1842,1584
1841,4095,3490
1841,7207,6073
1841,1553,1331
1841,2178,1872
1841,2702,2281
1841,2773,2332
1841,2027,1745
1841,4002,3396
1841,5027,4258
1841,3114,2622
1841,4027,3453
1841,1561,1323
1841,4789,4071
1841,3464,2952
1841,3758,3181
1841,7585,6530
1841,17,13
1841,8830,7396
1841,3460,2947
1841,1514,1265
1841,300,254
1841,6564,5540
1841,4709,3888
1841,1676,1399
1841,47,36
1841,9973,8329
1841,5804,4922
1841,403,338
1841,6002,5094
1841,3355,2850
1841,9231,7654
1841,8356,6993
1841,847,706
1841,5925,4932
1841,7946,6621
1841,1932,1682
1841,4817,4042
1841,2378,1998
1841,1565,1308
1841,2930,2450
1841,13224,11250
1841,2112,1800
1841,2998,2323
1841,7171,6046
1841,6852,5762
1841,288,229
1841,8678,7414
1841,4958,4146
1841,1732,1401
1841,5347,4525
1841,9701,8217
1841,13601,11314
1841,139,118
1841,7479,6462
1841,4189,3587
1841,5394,4562
1841,572,429
1841,12178,10539
1841,6118,5155
1841,324,260
1841,10020,8624
1841,4645,3956
1841,858,707
1841,14740,12706
1841,3493,2954
1841,797,649
1841,14683,12657
1841,3664,3065
1841,853,696
1841,12621,10840
1841,2450,2064
1841,1866,1528
1841,15419,12814
1841,439,333
1841,7409,6313
1841,3276,2755
1841,616,506
1841,4119,3528
1841,5584,4631
1841,9387,7862
1841,7400,6123
1841,3443,2896
1842,3536,3047
1842,3103,2644
1842,4711,3964
1842,11052,9424
1842,6368,5394
1842,9386,8108
1842,2992,2401
1842,2536,2145
1842,2521,2152
1842,2617,2225
1842,4671,3980
1842,4052,3493
1842,2277,1935
1842,2009,1712
1842,3043,2613
1842,4962,4227
1842,6940,5903
1842,1244,1043
1842,5269,4483
1842,6165,5227
1842,6292,5409
1842,7524,6370
1842,2616,2189
1842,6594,5550
1842,1899,1592
1842,5166,4397
1842,6316,5481
1842,5417,4538
1842,7072,5999
1842,5014,4300
1842,2908,2512
1842,5478,4601
1842,1580,1319
1842,2713,2305
1842,10314,8797
1842,4894,4031
1842,2537,2173
1842,6132,5197
1842,1587,1343
1842,6362,5453
1842,5094,4245
1842,7596,6521
1842,3800,3233
1842,7862,6346
1842,4770,4148
1842,4272,3596
1842,5058,4319
1842,2084,1748
1842,3425,2817
1842,5177,4268
1842,1888,1600
1842,7437,6331
1842,1631,1350
1842,3327,2878
1842,7884,6579
1842,3815,3271
1842,5023,4132
1842,6454,5567
1842,243,204
1842,8854,7214
1842,4474,3673
1842,2398,1985
1842,5012,4304
1842,3534,2980
1842,8723,7424
1842,11543,9649
1842,427,351
1842,19931,16503
1842,4877,4168
1842,529,405
1842,8356,7011
1842,7416,6231
1842,6687,5475
1842,18303,15632
1842,4477,3730
1842,825,688
1842,10693,9203
1842,13760,11512
1842,192,159
1842,11964,10218
1842,9306,7783
1842,996,815
1842,12770,10919
1842,8886,7466
1842,1782,1388
1842,18552,15407
1842,11236,9562
1842,524,422
1842,13866,11559
1842,4828,4024
1842,4068,3399
1842,233,194
1842,18720,15917
1842,5909,4902
1842,1860,1574
1842,720,596
1842,11895,9840
1842,7852,6690
1842,4691,3872
1842,16121,13366
1842,11380,9647
1842,592,474
1842,13748,11616
1843,5749,4958
1843,6344,5520
1843,4387,3788
1843,4770,4118
1843,6017,5144
1843,6541,5418
1843,7072,6154
1843,4726,4075
1843,1989,1638
1843,3234,2792
1843,2557,2214
1843,8974,7686
1843,1558,1319
1843,2280,1981
1843,2829,2400
1843,3575,3021
1843,8180,7002
1843,6216,5424
1843,2382,2017
1843,2691,2310
1843,2034,1737
1843,8954,7481
1843,3035,2600
1843,3347,2905
1843,4838,3994
1843,5181,4402
1843,3015,2533
1843,2460,2014
1843,1293,1090
1843,4080,3496
1843,9371,8021
1843,3416,2891
1843,5395,4455
1843,4201,3607
1843,1890,1623
1843,9655,8146
1843,3009,2597
1843,3245,2620
1843,1760,1504
1843,3892,3155
1843,3924,3362
1843,5728,4845
1843,5752,5017
1843,1895,1588
1843,5831,5016
1843,4129,3553
1843,1301,1092
1843,6662,5573
1843,5799,4836
1843,2395,2083
1843,8391,7146
1843,4112,3500
1843,5108,4167
1843,1951,1644
1843,11918,10130
1843,5942,5032
1843,3798,3236
1843,4779,4086
1843,5648,4855
1843,4228,3613
1843,2734,2354
1843,3921,3331
1843,4432,3780
1843,5462,4517
1843,7525,6331
1843,2684,2283
1843,2516,2128
1843,1628,1360
1843,2922,2522
1843,5597,4760
1843,3583,3121
1843,15404,12908
1843,5874,4864
1843,639,517
1843,9920,8515
1843,12963,10837
1843,1348,1113
1843,6295,5424
1843,13208,11104
1843,690,542
1843,8763,7542
1843,16653,13919
1843,717,574
1843,21283,18043
1843,6187,5169
1843,1080,879
1843,18418,15667
1843,5864,5014
1843,651,534
1843,26717,22978
1843,587,481
1843,9448,7939
1843,15918,13672
1843,292,234
1843,6936,5929
1843,2909,2372
1843,9143,7870
1843,945,725
1843,17716,15302
1843,1704,1423
1843,10634,9135
1843,5284,4555
1843,4128,3598
1843,8040,6823
1843,360,301
1843,6192,5318
1843,7370,6276
1843,1724,1474
1843,4129,3559
1843,371,302
1843,3460,2912
1844,4950,4104
1844,3400,2882
1844,3396,2823
1844,6613,5544
1844,5880,4984
1844,1148,972
1844,4547,3848
1844,5293,4551
1844,2661,2305
1844,3877,3327
1844,7896,6693
1844,3361,2866
1844,3073,2678
1844,3631,3162
1844,7096,6058
1844,7056,5937
1844,3675,3086
1844,5296,4504
1844,3143,2638
1844,5516,4689
1844,2502,2156
1844,2026,1722
1844,7620,6478
1844,2959,2523
1844,3707,3159
1844,3065,2642
1844,2314,1999
1844,7570,6594
1844,7045,5999
1844,4651,3941
1844,2970,2611
1844,3686,3226
1844,4079,3490
1844,2384,2029
1844,3731,3178
1844,6989,5928
1844,2187,1820
1844,6214,5361
1844,7629,6308
1844,5777,4756
1844,7396,6246
1844,4671,4084
1844,3228,2818
1844,5367,4352
1844,3157,2699
1844,7805,6741
1844,1814,1547
1844,5497,4755
1844,4040,3417
1844,2284,1949
1844,2084,1765
1844,2238,1934
1844,2501,2137
1844,5348,4515
1844,3779,3235
1844,4491,3898
1844,5093,4366
1844,3101,2643
1844,2586,2223
1844,5031,4270
1844,5648,4775
1844,4314,3693
1844,5214,4387
1844,3348,2816
1844,3173,2743
1844,5493,4760
1844,6236,5322
1844,7527,6428
1844,5984,5182
1844,2655,2297
1844,10676,9124
1844,1811,1530
1844,6142,5264
1844,4581,3802
1844,15069,12389
1844,528,431
1844,10725,9041
1844,17297,14808
1844,555,430
1844,13945,11888
1844,2428,2032
1844,2965,2457
1844,8004,6785
1844,6703,5766
1844,4089,3501
1844,408,345
1844,280,234
1844,8989,7678
1844,10260,8800
1844,3310,2853
1844,857,688
1844,8791,7208
1844,18262,15238
1844,276,236
1844,4478,3797
1844,12664,10499
1844,4153,3510
1844,2148,1770
1844,15680,13209
1844,8411,7145
1844,123,100
1844,8883,7698
1844,6938,5955
1844,3019,2422
1844,527,421
1844,5882,5134
1844,12193,10161
1844,5998,5132
1844,438,364
1844,225,180
1844,7237,6315
1844,7584,6443
1844,5041,4272
1844,440,369
1844,4891,4170
1844,20123,16916
1844,800,674
1844,8739,7484
1844,2873,2407
1845,6194,5311
1845,6944,5935
1845,7054,5720
1845,7277,6209
1845,4418,3690
1845,5498,4769
1845,4300,3730
1845,4235,3662
1845,3318,2871
1845,5217,4518
1845,11838,10120
1845,8101,6977
1845,3285,2773
1845,4489,3692
1845,3565,3074
1845,1967,1717
1845,5636,4828
1845,4489,3700
1845,7762,6447
1845,5311,4500
1845,6316,5510
1845,11672,9878
1845,6313,5439
1845,2310,1941
1845,24785,21026
1845,13348,11367
1845,5523,4719
1845,10513,8990
1845,12637,10727
1845,9099,7657
1845,11353,9629
1845,15209,13234
1845,12979,11028
1845,2882,2479
1845,15430,13224
1845,10443,9217
1845,15413,13238
1845,5313,4589
1845,7991,6874
1845,10474,8946
1845,4229,3388
1845,7309,6260
1845,12670,10912
1845,5600,4826
1845,6084,5253
1845,8219,7030
1845,1502,1284
1845,11886,10237
1845,6867,5909
1845,7953,6867
1845,8587,7302
1845,2158,1851
1845,12595,10785
1845,7417,6422
1845,5667,4957
1845,18180,15659
1845,8138,6803
1845,7356,6445
1845,5522,4742
1845,2351,2006
1845,1850,1514
1845,14569,12958
1845,6296,5503
1845,9277,7884
1845,2329,1911
1845,5936,5005
1845,8366,7008
1845,1625,1290
1845,7838,6688
1845,9131,7734
1845,773,621
1845,82976,71066
1845,665,545
1845,14344,12491
1845,156,132
1845,7762,6686
1845,20516,17174
1845,178,150
1845,9655,8162
1845,12822,10758
1845,397,321
1845,1613,1400
1846,24696,20662
1846,14650,12500
1846,9629,8391
1846,13318,11558
1846,13764,11653
1846,13572,11793
1846,9316,8118
1846,12379,10565
1846,15794,13231
1846,9541,8276
1846,10777,9233
1846,12265,10568
1846,10863,9368
1846,6311,5376
1846,3176,2745
1846,14169,11831
1846,9190,7870
1846,5253,4601
1846,5394,4712
1846,18507,16033
1846,5084,4353
1846,8281,7172
1846,13271,11408
1846,6605,5599
1846,9099,7787
1846,7864,6867
1846,13078,11463
1846,3998,3492
1846,7895,6806
1846,4481,3912
1846,8115,6963
1846,5764,4935
1846,13412,11444
1846,7770,6457
1846,5932,5140
1846,8373,7235
1846,12546,10811
1846,16362,14019
1846,1496,1287
1846,13575,11928
1846,2568,2201
1846,187,153
1846,14834,13083
1846,22993,19531
1846,493,407
1846,13293,11838
1846,6225,5146
1846,16334,13816
1846,3205,2750
1846,233,194
1846,9537,8189
1846,8883,7756
1846,1236,1047
1846,835,683
1846,10164,8752
1846,15963,13601
1846,557,466
1846,10003,8570
1846,8517,7309
1846,15234,13402
1846,4397,3784
1846,689,576
1846,10113,8754
1846,13988,12120
1846,3786,3260
1846,605,502
1846,17552,14977
1846,10257,8904
1846,24044,20499
1846,13918,12050
1846,7662,6619
1846,404,345
1846,4512,3927
1847,21355,18721
1847,7989,6805
1847,5744,4991
1847,3980,3344
1847,2001,1714
1847,1307,1133
1847,15622,13644
1847,5638,4671
1847,6113,5314
1847,2190,1867
1847,15761,13326
1847,4598,3864
1847,5919,5050
1847,2545,2205
1847,2012,1753
1847,456,400
1847,7995,6983
1847,24116,21063
1847,10875,9407
1847,1675,1451
1847,1478,1245
1847,10092,8529
1847,5571,4588
1847,3262,2784
1847,12553,10841
1847,1725,1492
1847,1254,1074
1847,380,313
1847,23690,20166
1847,6905,5701
1847,7367,6376
1847,5908,5022
1847,6762,5534
1847,4468,3809
1847,4232,3632
1847,6818,5658
1847,361,301
1847,478,398
1847,653,556
1847,228,198
1847,20045,17006
1847,7967,6667
1847,4766,4040
1847,2990,2627
1847,23543,20104
1847,5636,4893
1847,1616,1396
1847,12130,10317
1847,5505,4712
1847,4675,4109
1847,3529,3084
1847,1219,1057
1847,4415,3693
1847,4291,3761
1847,7126,6276
1847,7113,6222
1847,5949,5081
1847,708,591
1847,37239,32906
1847,9859,8549
1847,7920,6818
1847,11728,10046
1847,3783,3209
1847,11978,10486
1847,672,575
1847,13685,11600
1847,14725,12637
1847,15514,12958
1847,8940,7590
1847,9533,8241
1847,5902,5034
1847,11050,9443
1847,3763,3271
1847,15516,13708
1847,8628,7487
1847,525,457
1847,8943,7661
1847,13777,12143
1847,265,228
1847,8775,7640
1847,5817,4985
1847,5847,5114
1847,4994,4334
1847,5544,4781
1847,188,159
1847,9167,8013
1847,4303,3717
1847,14195,12409
1847,5747,5033
1847,20789,18151
1847,4247,3703
1848,13518,11662
1848,9014,7973
1848,5045,4390
1848,8368,7179
1848,2045,1779
1848,6608,5667
1848,23846,20470
1848,12271,10830
1848,5008,4266
1848,5190,4473
1848,465,389
1848,5556,4768
1848,1752,1529
1848,7223,6329
1848,15954,14076
1848,18837,16615
1848,4277,3777
1848,6227,5436
1848,1545,1368
1848,13158,11586
1848,7466,6491
1848,6925,6068
1848,953,806
1848,340,289
1848,899,779
1848,6047,5280
1848,3351,2949
1848,19139,16257
1848,13600,11859
1848,7491,6510
1848,9499,8227
1848,6835,6013
1848,814,682
1848,5531,4862
1848,1957,1757
1848,16040,13722
1848,10362,9021
1848,9674,8294
1848,5256,4676
1848,9052,7923
1848,4359,3725
1848,13553,11592
1848,14855,12931
1848,17038,14994
1848,184,160
1848,6915,6041
1848,17286,14964
1848,19724,17127
1848,878,720
1848,6050,5280
1848,5309,4571
1848,4809,4081
1848,16871,14571
1848,16892,14585
1848,9589,8312
1848,2367,2078
1848,16365,13714
1848,13498,11681
1848,236,201
1848,7657,6730
1848,6932,5879
1848,10237,8687
1848,13564,11655
1848,14843,12567
1848,6769,5881
1848,2118,1877
1848,7171,6269
1848,13588,11691
1848,6833,5832
1848,873,731
1848,8025,7065
1848,3324,2951
1849,11726,10012
1849,17395,14885
1849,3188,2799
1849,3777,3271
1849,1534,1319
1849,8172,6960
1849,19471,16979
1849,7548,6488
1849,10891,9455
1849,13269,11502
1849,7787,6633
1849,16098,14124
1849,13091,11091
1849,4514,3888
1849,7465,6321
1849,3126,2707
1849,25273,21473
1849,5007,4353
1849,9678,8250
1849,4054,3524
1849,5855,5030
1849,11121,9451
1849,5108,4497
1849,5486,4760
1849,20991,18174
1849,9221,7941
1849,6548,5773
1849,12971,11229
1849,18466,16036
1849,7506,6471
1849,5866,5032
1849,7154,6164
1849,11127,9053
1849,13146,11182
1849,14484,12755
1849,8487,7384
1849,11660,10149
1849,14821,13042
1849,7355,6367
1849,12515,10840
1849,22826,19902
1849,9340,8032
1849,7801,6745
1849,8214,7139
1849,11008,9059
1849,16824,14406
1849,9022,7912
1849,9821,8376
1849,8234,7238
1849,13567,11598
1849,28736,25205
1849,5111,4464
1849,10583,9237
1849,10716,9440
1849,4820,4187
1849,10149,8858
1849,14131,12338
1849,11372,9712
1849,11179,9746
1849,2492,2165
1850,6610,5730
1850,14930,13113
1850,7249,6306
1850,4459,3889
1850,3599,3133
1850,4299,3706
1850,16728,14023
1850,12293,10724
1850,5528,4799
1850,14210,12340
1850,7493,6506
1850,6711,5871
1850,12983,10661
1850,8905,7714
1850,4425,3749
1850,11092,9499
1850,15960,13658
1850,12293,9998
1850,3824,3348
1850,10061,8642
1850,7507,6546
1850,12061,10417
1850,21509,18748
1850,8580,7493
1850,10577,9266
1850,7533,6389
1850,163,142
1850,9578,8462
1850,3283,2841
1850,22178,19189
1850,8203,7133
1850,6042,5196
1850,6984,6207
1850,6773,5955
1850,11824,10145
1850,10951,9536
1850,18696,15551
1850,8386,7106
1850,13673,12040
1850,25140,21454
1850,7835,6619
1850,15867,13507
1850,19088,16688
1850,10981,9643
1850,6802,5893
1850,5466,4730
1850,17731,15431
1850,11281,9855
1850,9801,8630
1850,8858,7559
1850,1420,1254
1850,23503,20458
1850,11327,9947
1850,8988,7862
1850,4658,3824
1850,20568,17282
1850,8536,7498
1850,14597,12302
1850,5681,4903
1851,10219,8870
1851,12069,10460
1851,4000,3456
1851,4742,3970
1851,18280,15856
1851,734,594
1851,7212,6159
1851,10898,9566
1851,7916,6864
1851,15331,13590
1851,6715,5775
1851,3101,2461
1851,10904,9405
1851,14643,12877
1851,8518,7433
1851,7141,6149
1851,6630,5773
1851,1024,847
1851,11649,10005
1851,19697,16881
1851,15582,13428
1851,9515,8198
1851,18542,15412
1851,7194,6260
1851,10794,9127
1851,8442,7372
1851,9109,7814
1851,3468,3055
1851,1941,1648
1851,18412,15511
1851,12117,10346
1851,5865,5047
1851,7189,6168
1851,2812,2487
1851,1772,1465
1851,19472,16391
1851,15288,13012
1851,23066,19891
1851,7118,6233
1851,15941,13398
1851,11557,9871
1851,17300,15064
1851,7535,6531
1851,7381,6392
1851,8365,7065
1851,510,424
1851,15898,13381
1851,3276,2857
1851,15415,13389
1851,14790,12813
1851,5351,4664
1851,16332,13848
1851,885,762
1851,1949,1684
1851,10738,8988
1851,19583,16976
1851,6304,5481
1851,7164,6210
1851,4515,3915
1851,5182,4547
1851,10161,8942
1851,2172,1877
1851,11473,9844
1851,14511,12536
1851,8248,7148
1851,9773,8561
1851,17269,15214
1851,6774,5819
1851,15188,13236
1851,9382,8154
1851,5632,4873
1852,11036,9746
1852,4818,4173
1852,26103,22937
1852,7409,6507
1852,298,249
1852,8139,7126
1852,4252,3692
1852,23465,20310
1852,9291,8017
1852,3206,2801
1852,18359,16148
1852,14127,12008
1852,11667,10072
1852,13518,11871
1852,1034,827
1852,21473,18166
1852,16340,14196
1852,6692,5830
1852,8642,7655
1852,5013,4323
1852,8043,6955
1852,6097,5252
1852,12202,10569
1852,22291,19449
1852,3691,3143
1852,9926,8742
1852,18050,15665
1852,1018,864
1852,6322,5470
1852,4669,4081
1852,12228,10772
1852,25953,22784
1852,9140,7971
1852,8084,7066
1852,2081,1798
1852,17466,15480
1852,6897,6029
1852,11070,9830
1852,22989,20022
1852,2412,2108
1852,10627,9303
1852,5337,4591
1852,7226,6263
1852,19597,17010
1852,2739,2391
1852,24621,21472
1852,14496,12478
1852,12468,11067
1852,10352,9142
1852,7384,6476
1852,4670,4060
1852,15852,14038
1852,8856,7898
1852,7194,6221
1852,3295,2812
1852,3879,3388
1852,13784,12013
1852,3898,3408
1852,17969,15755
1852,12893,11196
1852,14457,12621
1852,4955,4318
1852,19403,17177
1852,11967,10224
1853,11906,10521
1853,7983,7061
1853,12936,11325
1853,8276,7175
1853,14230,11815
1853,14190,12456
1853,8909,8007
1853,9504,8461
1853,6310,5547
1853,4612,4037
1853,13024,11248
1853,6683,5870
1853,5216,4583
1853,14841,13461
1853,5591,4879
1853,20787,17834
1853,15407,13019
1853,9250,8310
1853,9236,7630
1853,5573,4836
1853,23062,19962
1853,11641,10023
1853,5976,5155
1853,14587,12815
1853,17387,15241
1853,10610,9238
1853,18936,16624
1853,5220,4625
1853,5145,4485
1853,19725,17192
1853,10069,8706
1853,16224,14182
1853,12490,10919
1853,16302,14184
1853,7044,6167
1853,9146,7959
1853,8659,7657
1853,24157,20967
1853,13644,11370
1853,3627,3187
1853,12368,10432
1853,4335,3750
1853,18090,15777
1853,9288,8228
1853,15797,13702
1853,5451,4752
1853,16612,14328
1853,5613,4869
1853,9194,8029
1853,2729,2400
1853,3480,3074
1853,6145,5351
1853,18483,15953
1853,25725,22390
1853,17545,14930
1853,7885,6838
1853,15304,13324
1854,15964,13826
1854,14133,12553
1854,4780,4144
1854,5322,4631
1854,1799,1534
1854,17855,15422
1854,20506,18238
1854,4643,4057
1854,6492,5680
1854,6237,5498
1854,1922,1651
1854,9457,8252
1854,26373,22969
1854,16522,14244
1854,18367,15612
1854,3324,2925
1854,10149,8402
1854,10983,9815
1854,7637,6841
1854,3219,2842
1854,930,811
1854,33050,28871
1854,12455,10883
1854,29433,25703
1854,1219,1070
1854,18812,16392
1854,12757,11213
1854,14419,12645
1854,21434,18600
1854,20211,17482
1854,20481,17895
1854,10840,9613
1854,3030,2695
1854,790,681
1854,16696,14798
1854,9212,8004
1854,14703,13030
1854,25033,21828
1854,3287,2851
1854,5581,4694
1854,11201,10030
1854,5007,4358
1854,13348,11638
1854,2750,2470
1854,21292,18485
1854,13394,11633
1854,6981,6072
1854,11544,10327
1854,20756,17870
1854,6988,6143
1854,7997,6938
1854,9806,8655
1854,27495,23964
1854,1465,1289
1854,3059,2668
1854,3356,2951
1854,6012,5271
1854,13188,11660
1854,23155,19838
1855,7669,6854
1855,8611,7338
1855,22319,19327
1855,9245,8120
1855,9318,8105
1855,18343,16190
1855,21581,18917
1855,18100,15574
1855,12884,10903
1855,10284,9188
1855,11237,9862
1855,18003,15709
1855,14373,12782
1855,8440,7570
1855,28570,24668
1855,800,662
1855,4946,4305
1855,26595,23513
1855,6425,5539
1855,22095,19232
1855,9258,8151
1855,17437,15361
1855,8580,7725
1855,13728,11771
1855,11867,10343
1855,20893,18350
1855,18059,15966
1855,2599,2170
1855,1144,989
1855,6934,5977
1855,12119,10592
1855,17081,15075
1855,5235,4586
1855,6336,5492
1855,13182,11520
1855,14161,12278
1855,11752,10360
1855,14317,12635
1855,18938,16682
1855,10791,9157
1855,9548,8050
1855,8503,7327
1855,8962,7738
1855,24521,21502
1855,10675,9279
1855,16627,14673
1855,20794,18175
1855,14687,12738
1855,13206,11699
1855,14320,12571
1855,2304,2023
1855,16554,14432
1856,20011,17752
1856,7195,6340
1856,25276,22249
1856,482,407
1856,4872,4146
1856,13090,11367
1856,16870,14956
1856,11204,9569
1856,7118,6155
1856,21946,18405
1856,15610,13846
1856,15914,13598
1856,11578,10131
1856,18077,15639
1856,22604,19832
1856,14784,12655
1856,9466,8287
1856,14234,12245
1856,22528,19140
1856,17385,15131
1856,17212,15403
1856,16465,14282
1856,11672,10368
1856,23251,19946
1856,6709,5905
1856,13576,11430
1856,11261,9675
1856,21222,18404
1856,21065,18363
1856,11514,9859
1856,6466,5650
1856,15462,13629
1856,13613,11991
1856,24350,21021
1856,17870,15109
1856,9848,8632
1856,15480,13662
1856,8723,7567
1856,6168,5433
1856,9974,8756
1856,16680,14770
1856,12774,11142
1856,22656,19853
1856,17285,15326
1856,6491,5661
1856,19156,16927
1856,8273,7219
1856,6946,5976
1856,5067,4425
1856,21153,18845
1856,24931,21754
1856,21637,18172
1857,361,285
1857,12166,10636
1857,33388,28919
1857,11692,9962
1857,10176,8866
1857,23895,20590
1857,13165,11654
1857,14959,13280
1857,8671,7577
1857,11502,10156
1857,8527,7437
1857,6788,6002
1857,10405,9101
1857,15914,13762
1857,28675,25468
1857,14320,12652
1857,12046,10642
1857,4710,4081
1857,14389,12710
1857,32154,28195
1857,6969,6276
1857,9359,8231
1857,3349,2864
1857,13427,11953
1857,20555,18251
1857,13803,12243
1857,3145,2798
1857,8610,7535
1857,20110,17722
1857,17617,15707
1857,4787,4233
1857,21770,18866
1857,27856,24602
1857,9441,8220
1857,13401,11696
1857,16204,14114
1857,10295,9116
1857,18363,16244
1857,18785,16762
1857,5797,5026
1857,5661,4731
1857,24701,21651
1857,17484,15223
1857,11734,10069
1857,4996,4367
1857,13608,11411
1857,17468,15089
1857,18466,16086
1857,4295,3723
1857,19220,16570
1857,17573,15129
1857,10196,9081
1857,14400,12338
1857,11365,9903
1858,26806,23614
1858,12656,11099
1858,7535,6700
1858,248,204
1858,22732,19892
1858,9069,7874
1858,19279,16968
1858,8003,7053
1858,8768,7789
1858,10893,9667
1858,423,352
1858,395,323
1858,24752,21376
1858,13183,11796
1858,14128,12389
1858,502,421
1858,1669,1324
1858,26184,22389
1858,29219,25547
1858,6480,5662
1858,14579,13005
1858,910,719
1858,15170,13406
1858,21141,18985
1858,16005,14196
1858,15380,13536
1858,295,248
1858,31263,27093
1858,16852,14897
1858,15671,13519
1858,14728,12785
1858,14021,11657
1858,4837,4188
1858,16060,14290
1858,18577,16577
1858,18370,15932
1858,346,282
1858,2415,2140
1858,32040,27246
1858,17289,15346
1858,520,435
1858,13949,12133
1858,14567,12833
1858,11976,10393
1858,8838,7735
1858,19535,16860
1858,23502,20734
1858,4782,4259
1858,12795,10990
1858,14505,12617
1858,14362,12615
1858,7025,6011
1858,18230,15493
1858,10788,9526
1858,6024,5305
1858,28109,25200
1858,13006,11434
1858,17480,14806
1858,6128,5411
1859,22579,19827
1859,23918,20454
1859,22834,19624
1859,9709,8404
1859,26335,22444
1859,6204,5411
1859,6034,5180
1859,17236,15145
1859,1211,1066
1859,3137,2800
1859,14271,12318
1859,16258,13742
1859,27417,24260
1859,9394,8088
1859,4800,4241
1859,23336,20523
1859,8593,7501
1859,5559,4903
1859,15999,14179
1859,6685,5816
1859,23279,20319
1859,26477,23540
1859,10496,9018
1859,10899,9668
1859,262,218
1859,21955,19142
1859,21030,18086
1859,15342,13137
1859,7446,6446
1859,4315,3757
1859,20836,18195
1859,14700,12985
1859,11711,10550
1859,20483,17545
1859,1641,1375
1859,2549,2225
1859,13525,11980
1859,15420,13311
1859,28932,24565
1859,140,109
1859,6738,5880
1859,12459,10975
1859,6033,5175
1859,10257,9113
1859,15850,13511
1859,513,409
1859,355,303
1859,10777,9476
1859,8706,7674
1859,5536,4781
1859,24984,21928
1859,15838,14095
1859,2672,2207
1859,16376,14589
1859,31873,27913
1859,668,569
1859,864,691
1859,222,186
1859,5398,4665
1859,14602,12876
1859,25090,22259
1859,34006,29086
1859,5048,4501
1860,8236,7182
1860,10767,9345
1860,7095,6099
1860,8247,7297
1860,12492,10658
1860,2439,2032
1860,230,199
1860,1152,922
1860,5894,5188
1860,15688,14044
1860,17089,15149
1860,8296,7150
1860,8766,7600
1860,17076,13594
1860,9279,8240
1860,21681,19172
1860,26307,23139
1860,2186,1818
1860,4290,3763
1860,10332,9274
1860,8133,7126
1860,7195,6158
1860,8084,6920
1860,410,325
1860,20757,17990
1860,25154,22791
1860,30413,26922
1860,944,798
1860,15105,13035
1860,30316,26695
1860,6873,6014
1860,9646,8525
1860,13839,12323
1860,6765,5885
1860,23921,20950
1860,10584,9327
1860,25491,22826
1860,9149,7970
1860,11298,9899
1860,18429,16112
1860,15803,13852
1860,22239,19403
1860,11699,10272
1860,3605,3087
1860,8535,7454
1860,11541,9765
1860,16077,14241
1860,9408,8250
1860,13955,12393
1860,14506,12953
1860,7490,6404
1860,6395,5534
1860,9461,8193
1860,14065,12247
1860,10272,9139
1860,11405,10138
1860,8384,7317
1860,8709,7602
1860,19301,16974
1860,7926,7073
1860,9596,8378
1860,14534,12656
1860,2696,2412
1860,25634,22074
1860,2130,1889
1861,15649,13404
1861,13725,12019
1861,9319,8252
1861,14333,12626
1861,4706,4072
1861,15895,14058
1861,10263,8992
1861,23512,20574
1861,2018,1673
1861,11182,9520
1861,4662,4098
1861,8403,7403
1861,12792,10930
1861,26292,23118
1861,6110,5309
1861,10467,9147
1861,25673,22559
1861,20422,17676
1861,10578,9143
1861,18344,15903
1861,19607,17246
1861,12238,10836
1861,8741,7702
1861,916,738
1861,17048,15074
1861,6428,5765
1861,23569,20682
1861,16495,14531
1861,20068,17252
1861,12139,10489
1861,11942,10546
1861,6000,5300
1861,3258,2866
1861,1982,1647
1861,22609,19952
1861,11826,10035
1861,22573,19383
1861,7015,6166
1861,2874,2493
1861,15492,13678
1861,15375,13494
1861,4483,3863
1861,9152,7935
1861,7272,6430
1861,17811,15940
1861,15331,13679
1861,6314,5651
1861,22349,19413
1861,7712,6706
1861,7793,6853
1861,3174,2709
1861,19554,17212
1861,20307,17904
1861,16317,14287
1861,11716,10426
1861,12184,10492
1861,14856,13322
1861,14042,12476
1861,20302,17898
1861,4396,3737
1861,10346,9212
1861,7168,6071
1861,1005,882
1862,11047,9663
1862,13049,11595
1862,18821,16625
1862,10344,9239
1862,16483,14327
1862,3403,2906
1862,19403,16709
1862,14369,12515
1862,14190,12417
1862,10922,9683
1862,14346,12408
1862,6784,5797
1862,16332,14281
1862,5905,5121
1862,23965,21161
1862,8490,7547
1862,16436,14262
1862,9661,8703
1862,22274,19739
1862,6565,5853
1862,33695,29064
1862,10722,9497
1862,20884,18537
1862,27413,24227
1862,4058,3625
1862,10405,9076
1862,12955,11441
1862,24758,21850
1862,5938,5324
1862,26804,23406
1862,15641,13706
1862,20108,17053
1862,29796,26307
1862,5799,5181
1862,7223,6362
1862,8315,7372
1862,8336,7436
1862,20381,17949
1862,19496,17280
1862,8825,7809
1862,27069,23190
1862,7430,6457
1862,21607,19046
1862,23609,20942
1862,15775,13811
1862,10793,9496
1862,5640,4956
1862,22964,20249
1862,13174,11569
1862,7452,6645
1862,12004,10670
1862,6378,5702
1862,18181,15871
1862,16181,14200
1862,7905,7037
1862,24725,21141
1862,5054,4489
1862,18890,17034
1862,10342,9060
1862,10325,9083
1862,7355,6530
1862,31572,26871
1863,7260,6463
1863,4012,3612
1863,23231,20494
1863,10655,9191
1863,7852,6946
1863,32157,28071
1863,1639,1438
1863,8635,7619
1863,15194,13512
1863,12077,10788
1863,15426,13563
1863,12347,11032
1863,940,852
1863,109,92
1863,19861,17629
1863,7001,6274
1863,13512,11970
1863,21552,19153
1863,14118,12592
1863,1169,978
1863,9694,8659
1863,8465,7495
1863,12437,10988
1863,11308,10238
1863,7136,6335
1863,8008,7173
1863,12751,11259
1863,12014,10788
1863,534,469
1863,8630,7596
1863,23346,20569
1863,25591,22665
1863,10683,9487
1863,26255,23085
1863,11494,10184
1863,7493,6661
1863,9915,8595
1863,18402,16319
1863,11506,10226
1863,5809,5173
1863,24158,21212
1863,12910,11678
1863,11501,10110
1863,10239,9104
1863,14245,12730
1863,5121,4541
1863,23552,20634
1863,10467,9093
1863,8869,7913
1863,15006,12884
1863,26798,23007
1863,24213,21249
1863,15373,13689
1863,6606,5865
1863,11596,10179
1863,18681,16490
1863,26697,23439
1863,10998,9679
1863,6813,6113
1863,13636,12106
1863,12482,10872
1863,16473,14572
1863,13722,12083
1863,12038,10711
1863,6610,5931
1863,211,175
1863,22077,19465
1863,2200,1845
1863,8005,7063
1863,19613,17473
1863,12513,10992
1863,13348,12146
1863,4895,4359
1863,18365,16047
1863,17255,15406
1863,21506,19417
1863,15416,13606
1863,12577,11265
1863,15040,12880
1863,1923,1221
1864,16021,14151
1864,14837,13423
1864,10413,9118
1864,14979,13449
1864,11093,9812
1864,7806,6927
1864,561,478
1864,18783,15919
1864,13729,11911
1864,26332,23171
1864,8681,7630
1864,10470,9098
1864,15353,13601
1864,10683,9416
1864,7096,6320
1864,5951,5288
1864,4345,3889
1864,19531,16926
1864,8690,7577
1864,1084,933
1864,17324,15438
1864,15667,13933
1864,6494,5794
1864,9464,8458
1864,16739,14921
1864,10052,9024
1864,5240,4715
1864,81,68
1864,16650,14723
1864,8534,7683
1864,1707,1527
1864,1435,1211
1864,20069,17146
1864,6303,5653
1864,17557,15557
1864,6931,6117
1864,13175,11768
1864,13051,11174
1864,22997,20071
1864,7599,6884
1864,10563,9397
1864,13691,12284
1864,9008,8091
1864,319,258
1864,4213,3689
1864,16837,14780
1864,8446,7552
1864,15947,14085
1864,8785,7582
1864,12968,11554
1864,12652,11460
1864,1727,1458
1864,2527,2193
1864,9965,8922
1864,11604,10452
1864,8036,6937
1864,14101,12635
1864,12655,11326
1864,9886,8754
1864,991,843
1864,16381,14426
1864,18837,16479
1864,10909,9824
1864,9648,8664
1864,14367,13072
1864,21506,18240
1864,13415,11804
1864,8581,7546
1864,5387,4759
1864,15097,13202
1864,24024,20836
1864,13752,11948
1864,14574,13198
1864,256,215
1864,13657,11947
1864,5839,5198
1864,2463,2238
1864,12678,11187
1864,14591,12856
1864,12275,11115
1864,10370,9071
1864,19514,17173
1864,14987,13236
1864,5619,4989
1864,12298,10553
1864,13721,12356
1864,1056,902
1864,102,85
1864,22100,19362
1864,2709,1623
1865,9903,8935
1865,7283,6405
1865,9523,8498
1865,16598,14315
1865,6594,5789
1865,6152,5463
1865,11223,9835
1865,1188,979
1865,16302,14444
1865,5348,4642
1865,12730,11215
1865,14871,13149
1865,18879,16208
1865,10142,8909
1865,23745,20874
1865,12360,10464
1865,13257,11655
1865,4505,3965
1865,7938,7109
1865,6132,5452
1865,14576,12370
1865,19270,16836
1865,11431,9768
1865,10288,9015
1865,5980,5262
1865,15012,13352
1865,5864,5099
1865,28253,24067
1865,13639,12098
1865,14870,13109
1865,21772,18960
1865,18994,16645
1865,3370,2922
1865,22035,18712
1865,10528,9197
1865,9953,8682
1865,7899,6850
1865,4965,4419
1865,8941,7997
1865,30515,26297
1865,950,795
1865,22873,20179
1865,12742,11235
1865,10197,9029
1865,11126,9835
1865,11813,10474
1865,9984,9022
1865,24173,21112
1865,3463,3024
1865,13593,11851
1865,20710,18342
1865,8996,7926
1865,10999,9694
1865,15348,13330
1865,6870,6077
1865,16443,14232
1865,31406,27915
1865,11324,10028
1865,6984,6147
1865,5246,4684
1865,23066,20449
1865,14254,12557
1865,16534,14514
1865,7177,6366
1865,4708,4137
1865,8256,7301
1865,10411,9119
1865,10824,9739
1865,7952,6943
1865,11032,9781
1865,9806,8895
1865,17437,15499
1865,22170,19513
1865,16550,14850
1865,9338,8374
1865,13247,11645
1865,20604,17920
1865,18661,16501
1865,2926,1842
1866,7987,7109
1866,12656,11278
1866,5169,4653
1866,22545,19873
1866,10451,8831
1866,23539,20242
1866,6479,5787
1866,13569,11837
1866,21283,19005
1866,15200,13374
1866,7880,7128
1866,7908,6834
1866,8586,7618
1866,15252,13281
1866,6608,5851
1866,17065,15318
1866,10524,9355
1866,12048,10666
1866,15289,13111
1866,8028,7186
1866,8920,7884
1866,6110,5397
1866,10941,9652
1866,15755,13758
1866,23770,21246
1866,14285,12476
1866,6192,5446
1866,7810,6950
1866,7826,6873
1866,16611,14534
1866,12084,10632
1866,25209,22418
1866,493,415
1866,7260,6473
1866,10056,8682
1866,19602,17317
1866,9989,8828
1866,10328,8924
1866,6112,5430
1866,11224,9875
1866,12427,10905
1866,7542,6686
1866,13014,11568
1866,27335,24109
1866,8319,7539
1866,12733,10721
1866,5863,5172
1866,8405,7143
1866,9973,8816
1866,11024,9662
1866,7864,6993
1866,14774,12967
1866,15862,13897
1866,2441,2142
1866,8380,7438
1866,15338,13470
1866,15652,13011
1866,13965,12498
1866,8067,7166
1866,15064,13423
1866,7545,6628
1866,8494,7528
1866,6448,5820
1866,18352,15999
1866,12082,10637
1866,11081,9678
1866,10607,9275
1866,11684,10383
1866,12552,10990
1866,3424,3039
1866,25367,22071
1866,12015,10767
1866,22084,19465
1866,3012,2679
1866,6797,6114
1866,7387,6521
1866,12734,11332
1866,19149,16483
1866,8753,7826
1866,7152,6502
1866,10742,9372
1866,7930,7062
1866,11071,9746
1866,2026,1360
1866,1974,1713
1867,13969,12319
1867,27694,24471
1867,9341,8382
1867,12167,10300
1867,1497,1231
1867,6336,5620
1867,15364,13416
1867,7568,6665
1867,7775,6683
1867,6123,5446
1867,4905,4210
1867,18318,16251
1867,7914,7045
1867,4384,3807
1867,380,312
1867,6143,5457
1867,16856,14826
1867,6979,6004
1867,12437,10829
1867,19451,17132
1867,16873,15019
1867,8571,7676
1867,3611,3047
1867,13940,12296
1867,16908,14887
1867,26878,23647
1867,12478,11216
1867,13089,11701
1867,9288,8292
1867,3988,3433
1867,16350,14429
1867,17854,15730
1867,19388,16996
1867,8280,7174
1867,17603,15421
1867,5589,4932
1867,23082,20283
1867,26558,23262
1867,13943,12154
1867,5084,4539
1867,8526,7357
1867,5146,4388
1867,11788,10421
1867,10584,9408
1867,11028,9671
1867,11616,10441
1867,8349,7477
1867,4801,4268
1867,11969,10582
1867,13230,11777
1867,16129,14080
1867,14117,12246
1867,15520,13619
1867,11009,9890
1867,6296,5531
1867,13771,12198
1867,19750,17468
1867,16359,14552
1867,26834,23194
1867,13274,11647
1867,12663,11216
1867,8765,7812
1867,20262,18198
1867,17994,15806
1867,7798,6805
1867,8164,7329
1867,16818,14831
1867,15449,13591
1867,9796,8614
1867,16789,15033
1867,5697,5111
1867,5471,4838
1867,18226,15658
1867,1339,1149
1867,13231,11477
1867,4856,4246
1867,20121,18197
1867,18231,15877
1867,16379,14311
1867,8645,7496
1867,17837,15692
1867,2254,1448
1868,9659,8508
1868,11576,10159
1868,12088,10814
1868,14143,12676
1868,9960,9045
1868,13651,11805
1868,22112,19544
1868,11784,10208
1868,13353,11763
1868,10620,9404
1868,12291,11006
1868,8517,7447
1868,8720,7853
1868,11764,10175
1868,13437,11846
1868,10438,9342
1868,16092,14085
1868,13716,11961
1868,16591,14851
1868,1163,1023
1868,11841,10444
1868,11895,10620
1868,24322,21125
1868,11747,10506
1868,12613,11281
1868,9066,8128
1868,2924,2553
1868,16011,13995
1868,15179,13418
1868,8752,7828
1868,14290,13034
1868,11063,9599
1868,8527,7657
1868,7404,6600
1868,16094,14158
1868,19408,16770
1868,12023,10696
1868,16666,14571
1868,4199,3667
1868,12578,10276
1868,3901,3462
1868,2879,2342
1868,22587,20055
1868,12665,11243
1868,5970,5269
1868,18089,16239
1868,18014,15813
1868,7681,6853
1868,5422,4751
1868,7317,6313
1868,13676,11946
1868,20320,18049
1868,7876,6948
1868,4285,3811
1868,12619,10985
1868,15963,13759
1868,10750,9419
1868,10012,8894
1868,19783,17234
1868,4727,4244
1868,10350,9182
1868,8515,7426
1868,756,650
1868,16194,14354
1868,17971,15916
1868,6519,5779
1868,10051,8998
1868,19541,17399
1868,9907,8597
1868,9002,7990
1868,17781,15816
